<?xml version="1.0" encoding="utf-8"?>
<!DOCTYPE eagle SYSTEM "eagle.dtd">
<eagle version="7.4.0">
<drawing>
<settings>
<setting alwaysvectorfont="no"/>
<setting verticaltext="up"/>
</settings>
<grid distance="0.1" unitdist="inch" unit="inch" style="lines" multiple="1" display="no" altdistance="0.01" altunitdist="inch" altunit="inch"/>
<layers>
<layer number="1" name="Top" color="4" fill="1" visible="no" active="no"/>
<layer number="16" name="Bottom" color="1" fill="1" visible="no" active="no"/>
<layer number="17" name="Pads" color="2" fill="1" visible="no" active="no"/>
<layer number="18" name="Vias" color="2" fill="1" visible="no" active="no"/>
<layer number="19" name="Unrouted" color="6" fill="1" visible="no" active="no"/>
<layer number="20" name="Dimension" color="15" fill="1" visible="no" active="no"/>
<layer number="21" name="tPlace" color="16" fill="1" visible="no" active="no"/>
<layer number="22" name="bPlace" color="14" fill="1" visible="no" active="no"/>
<layer number="23" name="tOrigins" color="15" fill="1" visible="no" active="no"/>
<layer number="24" name="bOrigins" color="15" fill="1" visible="no" active="no"/>
<layer number="25" name="tNames" color="7" fill="1" visible="no" active="no"/>
<layer number="26" name="bNames" color="7" fill="1" visible="no" active="no"/>
<layer number="27" name="tValues" color="7" fill="1" visible="no" active="no"/>
<layer number="28" name="bValues" color="7" fill="1" visible="no" active="no"/>
<layer number="29" name="tStop" color="7" fill="3" visible="no" active="no"/>
<layer number="30" name="bStop" color="7" fill="6" visible="no" active="no"/>
<layer number="31" name="tCream" color="7" fill="4" visible="no" active="no"/>
<layer number="32" name="bCream" color="7" fill="5" visible="no" active="no"/>
<layer number="33" name="tFinish" color="6" fill="3" visible="no" active="no"/>
<layer number="34" name="bFinish" color="6" fill="6" visible="no" active="no"/>
<layer number="35" name="tGlue" color="7" fill="4" visible="no" active="no"/>
<layer number="36" name="bGlue" color="7" fill="5" visible="no" active="no"/>
<layer number="37" name="tTest" color="7" fill="1" visible="no" active="no"/>
<layer number="38" name="bTest" color="7" fill="1" visible="no" active="no"/>
<layer number="39" name="tKeepout" color="4" fill="11" visible="no" active="no"/>
<layer number="40" name="bKeepout" color="1" fill="11" visible="no" active="no"/>
<layer number="41" name="tRestrict" color="4" fill="10" visible="no" active="no"/>
<layer number="42" name="bRestrict" color="1" fill="10" visible="no" active="no"/>
<layer number="43" name="vRestrict" color="2" fill="10" visible="no" active="no"/>
<layer number="44" name="Drills" color="7" fill="1" visible="no" active="no"/>
<layer number="45" name="Holes" color="7" fill="1" visible="no" active="no"/>
<layer number="46" name="Milling" color="3" fill="1" visible="no" active="no"/>
<layer number="47" name="Measures" color="7" fill="1" visible="no" active="no"/>
<layer number="48" name="Document" color="7" fill="1" visible="no" active="no"/>
<layer number="49" name="Reference" color="7" fill="1" visible="no" active="no"/>
<layer number="50" name="dxf" color="7" fill="1" visible="no" active="no"/>
<layer number="51" name="tDocu" color="7" fill="1" visible="no" active="no"/>
<layer number="52" name="bDocu" color="7" fill="1" visible="no" active="no"/>
<layer number="53" name="tGND_GNDA" color="7" fill="9" visible="no" active="no"/>
<layer number="54" name="bGND_GNDA" color="1" fill="9" visible="no" active="no"/>
<layer number="56" name="wert" color="7" fill="1" visible="no" active="no"/>
<layer number="57" name="tCAD" color="7" fill="1" visible="no" active="no"/>
<layer number="59" name="tCarbon" color="7" fill="1" visible="no" active="no"/>
<layer number="60" name="bCarbon" color="7" fill="1" visible="no" active="no"/>
<layer number="90" name="Modules" color="5" fill="1" visible="yes" active="yes"/>
<layer number="91" name="Nets" color="2" fill="1" visible="yes" active="yes"/>
<layer number="92" name="Busses" color="1" fill="1" visible="yes" active="yes"/>
<layer number="93" name="Pins" color="2" fill="1" visible="no" active="yes"/>
<layer number="94" name="Symbols" color="4" fill="1" visible="yes" active="yes"/>
<layer number="95" name="Names" color="7" fill="1" visible="yes" active="yes"/>
<layer number="96" name="Values" color="7" fill="1" visible="yes" active="yes"/>
<layer number="97" name="Info" color="7" fill="1" visible="yes" active="yes"/>
<layer number="98" name="Guide" color="6" fill="1" visible="yes" active="yes"/>
<layer number="99" name="SpiceOrder" color="7" fill="1" visible="no" active="no"/>
<layer number="100" name="Muster" color="7" fill="1" visible="no" active="no"/>
<layer number="101" name="Patch_Top" color="12" fill="4" visible="yes" active="yes"/>
<layer number="102" name="Vscore" color="7" fill="1" visible="yes" active="yes"/>
<layer number="103" name="tMap" color="7" fill="1" visible="yes" active="yes"/>
<layer number="104" name="Name" color="16" fill="1" visible="yes" active="yes"/>
<layer number="105" name="tPlate" color="7" fill="1" visible="yes" active="yes"/>
<layer number="106" name="bPlate" color="7" fill="1" visible="yes" active="yes"/>
<layer number="107" name="Crop" color="7" fill="1" visible="yes" active="yes"/>
<layer number="108" name="tplace-old" color="10" fill="1" visible="yes" active="yes"/>
<layer number="109" name="ref-old" color="11" fill="1" visible="yes" active="yes"/>
<layer number="110" name="fp0" color="7" fill="1" visible="yes" active="yes"/>
<layer number="111" name="LPC17xx" color="7" fill="1" visible="yes" active="yes"/>
<layer number="112" name="tSilk" color="7" fill="1" visible="yes" active="yes"/>
<layer number="113" name="IDFDebug" color="7" fill="1" visible="yes" active="yes"/>
<layer number="114" name="Badge_Outline" color="11" fill="1" visible="no" active="no"/>
<layer number="116" name="Patch_BOT" color="9" fill="4" visible="yes" active="yes"/>
<layer number="118" name="Rect_Pads" color="7" fill="1" visible="yes" active="yes"/>
<layer number="121" name="_tsilk" color="7" fill="1" visible="yes" active="yes"/>
<layer number="122" name="_bsilk" color="7" fill="1" visible="yes" active="yes"/>
<layer number="123" name="tTestmark" color="7" fill="1" visible="yes" active="yes"/>
<layer number="124" name="bTestmark" color="7" fill="1" visible="yes" active="yes"/>
<layer number="125" name="_tNames" color="7" fill="1" visible="yes" active="yes"/>
<layer number="126" name="_bNames" color="7" fill="1" visible="yes" active="yes"/>
<layer number="127" name="_tValues" color="7" fill="1" visible="yes" active="yes"/>
<layer number="128" name="_bValues" color="7" fill="1" visible="yes" active="yes"/>
<layer number="129" name="Mask" color="7" fill="1" visible="yes" active="yes"/>
<layer number="131" name="tAdjust" color="7" fill="1" visible="yes" active="yes"/>
<layer number="132" name="bAdjust" color="7" fill="1" visible="yes" active="yes"/>
<layer number="144" name="Drill_legend" color="7" fill="1" visible="yes" active="yes"/>
<layer number="150" name="Notes" color="7" fill="1" visible="yes" active="yes"/>
<layer number="151" name="HeatSink" color="7" fill="1" visible="yes" active="yes"/>
<layer number="152" name="_bDocu" color="7" fill="1" visible="yes" active="yes"/>
<layer number="153" name="FabDoc1" color="7" fill="1" visible="yes" active="yes"/>
<layer number="154" name="FabDoc2" color="7" fill="1" visible="yes" active="yes"/>
<layer number="155" name="FabDoc3" color="7" fill="1" visible="yes" active="yes"/>
<layer number="199" name="Contour" color="7" fill="1" visible="yes" active="yes"/>
<layer number="200" name="200bmp" color="1" fill="10" visible="yes" active="yes"/>
<layer number="201" name="201bmp" color="2" fill="10" visible="yes" active="yes"/>
<layer number="202" name="202bmp" color="3" fill="10" visible="yes" active="yes"/>
<layer number="203" name="203bmp" color="4" fill="10" visible="yes" active="yes"/>
<layer number="204" name="204bmp" color="5" fill="10" visible="yes" active="yes"/>
<layer number="205" name="205bmp" color="6" fill="10" visible="yes" active="yes"/>
<layer number="206" name="206bmp" color="7" fill="10" visible="yes" active="yes"/>
<layer number="207" name="207bmp" color="8" fill="10" visible="yes" active="yes"/>
<layer number="208" name="208bmp" color="9" fill="10" visible="yes" active="yes"/>
<layer number="209" name="209bmp" color="7" fill="1" visible="yes" active="yes"/>
<layer number="210" name="210bmp" color="7" fill="1" visible="yes" active="yes"/>
<layer number="211" name="211bmp" color="7" fill="1" visible="yes" active="yes"/>
<layer number="212" name="212bmp" color="7" fill="1" visible="yes" active="yes"/>
<layer number="213" name="213bmp" color="7" fill="1" visible="yes" active="yes"/>
<layer number="214" name="214bmp" color="7" fill="1" visible="yes" active="yes"/>
<layer number="215" name="215bmp" color="7" fill="1" visible="yes" active="yes"/>
<layer number="216" name="216bmp" color="7" fill="1" visible="yes" active="yes"/>
<layer number="217" name="217bmp" color="18" fill="1" visible="no" active="no"/>
<layer number="218" name="218bmp" color="19" fill="1" visible="no" active="no"/>
<layer number="219" name="219bmp" color="20" fill="1" visible="no" active="no"/>
<layer number="220" name="220bmp" color="21" fill="1" visible="no" active="no"/>
<layer number="221" name="221bmp" color="22" fill="1" visible="no" active="no"/>
<layer number="222" name="222bmp" color="23" fill="1" visible="no" active="no"/>
<layer number="223" name="223bmp" color="24" fill="1" visible="no" active="no"/>
<layer number="224" name="224bmp" color="25" fill="1" visible="no" active="no"/>
<layer number="225" name="225bmp" color="7" fill="1" visible="yes" active="yes"/>
<layer number="226" name="226bmp" color="7" fill="1" visible="yes" active="yes"/>
<layer number="227" name="227bmp" color="7" fill="1" visible="yes" active="yes"/>
<layer number="228" name="228bmp" color="7" fill="1" visible="yes" active="yes"/>
<layer number="229" name="229bmp" color="7" fill="1" visible="yes" active="yes"/>
<layer number="230" name="230bmp" color="7" fill="1" visible="yes" active="yes"/>
<layer number="231" name="231bmp" color="7" fill="1" visible="yes" active="yes"/>
<layer number="248" name="Housing" color="7" fill="1" visible="yes" active="yes"/>
<layer number="249" name="Edge" color="7" fill="1" visible="yes" active="yes"/>
<layer number="250" name="Descript" color="3" fill="1" visible="no" active="no"/>
<layer number="251" name="SMDround" color="12" fill="11" visible="no" active="no"/>
<layer number="254" name="cooling" color="7" fill="1" visible="yes" active="yes"/>
<layer number="255" name="routoute" color="7" fill="1" visible="yes" active="yes"/>
</layers>
<schematic xreflabel="%F%N/%S.%C%R" xrefpart="/%S.%C%R">
<libraries>
<library name="SparkFun-Boards">
<description>&lt;h3&gt;SparkFun Electronics' preferred foot prints&lt;/h3&gt;
In this library you'll find boards and modules: Arduino footprints, breadboards, non-RF modules, etc.&lt;br&gt;&lt;br&gt;
We've spent an enormous amount of time creating and checking these footprints and parts, but it is the end user's responsibility to ensure correctness and suitablity for a given componet or application. If you enjoy using this library, please buy one of our products at www.sparkfun.com.
&lt;br&gt;&lt;br&gt;
&lt;b&gt;Licensing:&lt;/b&gt; Creative Commons ShareAlike 4.0 International - https://creativecommons.org/licenses/by-sa/4.0/ 
&lt;br&gt;&lt;br&gt;
You are welcome to use this library for commercial purposes. For attribution, we ask that when you begin to sell your device using our footprint, you email us with a link to the product being sold. We want bragging rights that we helped (in a very small part) to create your 8th world wonder. We would like the opportunity to feature your device on our homepage.</description>
<packages>
<package name="2X20-SHROUDED">
<wire x1="-2.775" y1="24.765" x2="-2.775" y2="23.495" width="0.2032" layer="21"/>
<wire x1="4.5" y1="29.15" x2="4.5" y2="-29.15" width="0.2032" layer="21"/>
<wire x1="-4.5" y1="-29.15" x2="-4.5" y2="29.15" width="0.2032" layer="21"/>
<wire x1="-4.5" y1="29.15" x2="4.4" y2="29.15" width="0.2032" layer="21"/>
<wire x1="4.5" y1="-29.15" x2="-4.5" y2="-29.15" width="0.2032" layer="21"/>
<wire x1="-3.4" y1="28.05" x2="3.4" y2="28.05" width="0.2032" layer="51"/>
<wire x1="3.4" y1="28.05" x2="3.4" y2="-28.05" width="0.2032" layer="51"/>
<wire x1="-3.4" y1="-28.05" x2="3.4" y2="-28.05" width="0.2032" layer="51"/>
<wire x1="-3.4" y1="28.05" x2="-3.4" y2="2.2" width="0.2032" layer="51"/>
<wire x1="-3.4" y1="-28.05" x2="-3.4" y2="-2.2" width="0.2032" layer="51"/>
<pad name="1" x="-1.27" y="24.13" drill="1.016" diameter="1.8796" shape="octagon" rot="R270"/>
<pad name="2" x="1.27" y="24.13" drill="1.016" diameter="1.8796" shape="octagon" rot="R270"/>
<pad name="3" x="-1.27" y="21.59" drill="1.016" diameter="1.8796" shape="octagon" rot="R270"/>
<pad name="4" x="1.27" y="21.59" drill="1.016" diameter="1.8796" shape="octagon" rot="R270"/>
<pad name="5" x="-1.27" y="19.05" drill="1.016" diameter="1.8796" shape="octagon" rot="R270"/>
<pad name="6" x="1.27" y="19.05" drill="1.016" diameter="1.8796" shape="octagon" rot="R270"/>
<pad name="7" x="-1.27" y="16.51" drill="1.016" diameter="1.8796" shape="octagon" rot="R270"/>
<pad name="8" x="1.27" y="16.51" drill="1.016" diameter="1.8796" shape="octagon" rot="R270"/>
<pad name="9" x="-1.27" y="13.97" drill="1.016" diameter="1.8796" shape="octagon" rot="R270"/>
<pad name="10" x="1.27" y="13.97" drill="1.016" diameter="1.8796" shape="octagon" rot="R270"/>
<text x="-2.921" y="29.464" size="0.4064" layer="27" font="vector">&gt;VALUE</text>
<text x="-2.921" y="-29.972" size="0.4064" layer="104">&gt;NAME</text>
<rectangle x1="-1.524" y1="23.876" x2="-1.016" y2="24.384" layer="51"/>
<rectangle x1="1.016" y1="23.876" x2="1.524" y2="24.384" layer="51"/>
<rectangle x1="1.016" y1="21.336" x2="1.524" y2="21.844" layer="51"/>
<rectangle x1="-1.524" y1="21.336" x2="-1.016" y2="21.844" layer="51"/>
<rectangle x1="1.016" y1="18.796" x2="1.524" y2="19.304" layer="51"/>
<rectangle x1="-1.524" y1="18.796" x2="-1.016" y2="19.304" layer="51"/>
<rectangle x1="1.016" y1="16.256" x2="1.524" y2="16.764" layer="51"/>
<rectangle x1="-1.524" y1="16.256" x2="-1.016" y2="16.764" layer="51"/>
<rectangle x1="1.016" y1="13.716" x2="1.524" y2="14.224" layer="51"/>
<rectangle x1="-1.524" y1="13.716" x2="-1.016" y2="14.224" layer="51"/>
<rectangle x1="-1.524" y1="16.256" x2="-1.016" y2="16.764" layer="51"/>
<rectangle x1="1.016" y1="16.256" x2="1.524" y2="16.764" layer="51"/>
<pad name="11" x="-1.27" y="11.43" drill="1.016" diameter="1.8796" shape="octagon" rot="R270"/>
<pad name="12" x="1.27" y="11.43" drill="1.016" diameter="1.8796" shape="octagon" rot="R270"/>
<pad name="13" x="-1.27" y="8.89" drill="1.016" diameter="1.8796" shape="octagon" rot="R270"/>
<pad name="14" x="1.27" y="8.89" drill="1.016" diameter="1.8796" shape="octagon" rot="R270"/>
<pad name="15" x="-1.27" y="6.35" drill="1.016" diameter="1.8796" shape="octagon" rot="R270"/>
<pad name="16" x="1.27" y="6.35" drill="1.016" diameter="1.8796" shape="octagon" rot="R270"/>
<pad name="17" x="-1.27" y="3.81" drill="1.016" diameter="1.8796" shape="octagon" rot="R270"/>
<pad name="18" x="1.27" y="3.81" drill="1.016" diameter="1.8796" shape="octagon" rot="R270"/>
<pad name="19" x="-1.27" y="1.27" drill="1.016" diameter="1.8796" shape="octagon" rot="R270"/>
<pad name="20" x="1.27" y="1.27" drill="1.016" diameter="1.8796" shape="octagon" rot="R270"/>
<rectangle x1="-1.524" y1="11.176" x2="-1.016" y2="11.684" layer="51"/>
<rectangle x1="1.016" y1="11.176" x2="1.524" y2="11.684" layer="51"/>
<rectangle x1="1.016" y1="8.636" x2="1.524" y2="9.144" layer="51"/>
<rectangle x1="-1.524" y1="8.636" x2="-1.016" y2="9.144" layer="51"/>
<rectangle x1="1.016" y1="6.096" x2="1.524" y2="6.604" layer="51"/>
<rectangle x1="-1.524" y1="6.096" x2="-1.016" y2="6.604" layer="51"/>
<rectangle x1="1.016" y1="3.556" x2="1.524" y2="4.064" layer="51"/>
<rectangle x1="-1.524" y1="3.556" x2="-1.016" y2="4.064" layer="51"/>
<rectangle x1="1.016" y1="1.016" x2="1.524" y2="1.524" layer="51"/>
<rectangle x1="-1.524" y1="1.016" x2="-1.016" y2="1.524" layer="51"/>
<rectangle x1="-1.524" y1="3.556" x2="-1.016" y2="4.064" layer="51"/>
<rectangle x1="1.016" y1="3.556" x2="1.524" y2="4.064" layer="51"/>
<pad name="21" x="-1.27" y="-1.27" drill="1.016" diameter="1.8796" shape="octagon" rot="R270"/>
<pad name="22" x="1.27" y="-1.27" drill="1.016" diameter="1.8796" shape="octagon" rot="R270"/>
<pad name="23" x="-1.27" y="-3.81" drill="1.016" diameter="1.8796" shape="octagon" rot="R270"/>
<pad name="24" x="1.27" y="-3.81" drill="1.016" diameter="1.8796" shape="octagon" rot="R270"/>
<pad name="25" x="-1.27" y="-6.35" drill="1.016" diameter="1.8796" shape="octagon" rot="R270"/>
<pad name="26" x="1.27" y="-6.35" drill="1.016" diameter="1.8796" shape="octagon" rot="R270"/>
<rectangle x1="1.016" y1="-1.524" x2="1.524" y2="-1.016" layer="51"/>
<rectangle x1="-1.524" y1="-1.524" x2="-1.016" y2="-1.016" layer="51"/>
<rectangle x1="1.016" y1="-4.064" x2="1.524" y2="-3.556" layer="51"/>
<rectangle x1="-1.524" y1="-4.064" x2="-1.016" y2="-3.556" layer="51"/>
<rectangle x1="1.016" y1="-6.604" x2="1.524" y2="-6.096" layer="51"/>
<rectangle x1="-1.524" y1="-6.604" x2="-1.016" y2="-6.096" layer="51"/>
<rectangle x1="-1.524" y1="-4.064" x2="-1.016" y2="-3.556" layer="51"/>
<rectangle x1="1.016" y1="-4.064" x2="1.524" y2="-3.556" layer="51"/>
<pad name="27" x="-1.27" y="-8.89" drill="1.016" diameter="1.8796" shape="octagon" rot="R270"/>
<pad name="28" x="1.27" y="-8.89" drill="1.016" diameter="1.8796" shape="octagon" rot="R270"/>
<pad name="29" x="-1.27" y="-11.43" drill="1.016" diameter="1.8796" shape="octagon" rot="R270"/>
<pad name="30" x="1.27" y="-11.43" drill="1.016" diameter="1.8796" shape="octagon" rot="R270"/>
<pad name="31" x="-1.27" y="-13.97" drill="1.016" diameter="1.8796" shape="octagon" rot="R270"/>
<pad name="32" x="1.27" y="-13.97" drill="1.016" diameter="1.8796" shape="octagon" rot="R270"/>
<pad name="33" x="-1.27" y="-16.51" drill="1.016" diameter="1.8796" shape="octagon" rot="R270"/>
<pad name="34" x="1.27" y="-16.51" drill="1.016" diameter="1.8796" shape="octagon" rot="R270"/>
<pad name="35" x="-1.27" y="-19.05" drill="1.016" diameter="1.8796" shape="octagon" rot="R270"/>
<pad name="36" x="1.27" y="-19.05" drill="1.016" diameter="1.8796" shape="octagon" rot="R270"/>
<pad name="37" x="-1.27" y="-21.59" drill="1.016" diameter="1.8796" shape="octagon" rot="R270"/>
<pad name="38" x="1.27" y="-21.59" drill="1.016" diameter="1.8796" shape="octagon" rot="R270"/>
<pad name="39" x="-1.27" y="-24.13" drill="1.016" diameter="1.8796" shape="octagon" rot="R270"/>
<pad name="40" x="1.27" y="-24.13" drill="1.016" diameter="1.8796" shape="octagon" rot="R270"/>
<rectangle x1="1.016" y1="-9.144" x2="1.524" y2="-8.636" layer="51"/>
<rectangle x1="1.016" y1="-11.684" x2="1.524" y2="-11.176" layer="51"/>
<rectangle x1="1.016" y1="-14.224" x2="1.524" y2="-13.716" layer="51"/>
<rectangle x1="1.016" y1="-16.764" x2="1.524" y2="-16.256" layer="51"/>
<rectangle x1="1.016" y1="-19.304" x2="1.524" y2="-18.796" layer="51"/>
<rectangle x1="1.016" y1="-21.844" x2="1.524" y2="-21.336" layer="51"/>
<rectangle x1="1.016" y1="-24.384" x2="1.524" y2="-23.876" layer="51"/>
<rectangle x1="-1.524" y1="-9.144" x2="-1.016" y2="-8.636" layer="51"/>
<rectangle x1="-1.524" y1="-11.684" x2="-1.016" y2="-11.176" layer="51"/>
<rectangle x1="-1.524" y1="-14.224" x2="-1.016" y2="-13.716" layer="51"/>
<rectangle x1="-1.524" y1="-16.764" x2="-1.016" y2="-16.256" layer="51"/>
<rectangle x1="-1.524" y1="-19.304" x2="-1.016" y2="-18.796" layer="51"/>
<rectangle x1="-1.524" y1="-21.844" x2="-1.016" y2="-21.336" layer="51"/>
<rectangle x1="-1.524" y1="-24.384" x2="-1.016" y2="-23.876" layer="51"/>
<wire x1="-4.5" y1="2.2" x2="-3" y2="2.2" width="0.2032" layer="21"/>
<wire x1="-3" y1="-2.2" x2="-4.5" y2="-2.2" width="0.2032" layer="21"/>
<wire x1="-3" y1="2.2" x2="-3" y2="-2.2" width="0.2032" layer="21"/>
</package>
<package name="2X20-SHROUDED-SMT">
<description>2x20, 0.1" pitch shrouded connector.
&lt;br&gt;&lt;br&gt;
Footprint designed for Sullins SBH11-NBPC-D20-SM-BK</description>
<wire x1="-4.175" y1="26.365" x2="-4.175" y2="25.095" width="0.2032" layer="21"/>
<wire x1="4.5" y1="29.15" x2="4.5" y2="-29.15" width="0.2032" layer="21"/>
<wire x1="-4.5" y1="-29.15" x2="-4.5" y2="29.15" width="0.2032" layer="21"/>
<wire x1="-4.5" y1="29.15" x2="4.4" y2="29.15" width="0.2032" layer="21"/>
<wire x1="4.5" y1="-29.15" x2="-4.5" y2="-29.15" width="0.2032" layer="21"/>
<wire x1="-3.4" y1="28.05" x2="3.4" y2="28.05" width="0.2032" layer="51"/>
<wire x1="3.4" y1="28.05" x2="3.4" y2="-28.05" width="0.2032" layer="51"/>
<wire x1="-3.4" y1="-28.05" x2="3.4" y2="-28.05" width="0.2032" layer="51"/>
<wire x1="-3.4" y1="28.05" x2="-3.4" y2="2.2" width="0.2032" layer="51"/>
<wire x1="-3.4" y1="-28.05" x2="-3.4" y2="-2.2" width="0.2032" layer="51"/>
<text x="-2.921" y="29.464" size="0.4064" layer="27" font="vector">&gt;VALUE</text>
<wire x1="-4.5" y1="2.2" x2="-3" y2="2.2" width="0.2032" layer="21"/>
<wire x1="-3" y1="-2.2" x2="-4.5" y2="-2.2" width="0.2032" layer="21"/>
<wire x1="-3" y1="2.2" x2="-3" y2="-2.2" width="0.2032" layer="21"/>
<smd name="1" x="-3.5687" y="24.13" dx="4.1402" dy="0.9906" layer="1"/>
<smd name="2" x="3.5687" y="24.13" dx="4.1402" dy="0.9906" layer="1"/>
<smd name="3" x="-3.5687" y="21.59" dx="4.1402" dy="0.9906" layer="1"/>
<smd name="4" x="3.5687" y="21.59" dx="4.1402" dy="0.9906" layer="1"/>
<smd name="5" x="-3.5687" y="19.05" dx="4.1402" dy="0.9906" layer="1"/>
<smd name="6" x="3.5687" y="19.05" dx="4.1402" dy="0.9906" layer="1"/>
<smd name="7" x="-3.5687" y="16.51" dx="4.1402" dy="0.9906" layer="1"/>
<smd name="8" x="3.5687" y="16.51" dx="4.1402" dy="0.9906" layer="1"/>
<smd name="9" x="-3.5687" y="13.97" dx="4.1402" dy="0.9906" layer="1"/>
<smd name="10" x="3.5687" y="13.97" dx="4.1402" dy="0.9906" layer="1"/>
<smd name="11" x="-3.5687" y="11.43" dx="4.1402" dy="0.9906" layer="1"/>
<smd name="12" x="3.5687" y="11.43" dx="4.1402" dy="0.9906" layer="1"/>
<smd name="13" x="-3.5687" y="8.89" dx="4.1402" dy="0.9906" layer="1"/>
<smd name="14" x="3.5687" y="8.89" dx="4.1402" dy="0.9906" layer="1"/>
<smd name="15" x="-3.5687" y="6.35" dx="4.1402" dy="0.9906" layer="1"/>
<smd name="16" x="3.5687" y="6.35" dx="4.1402" dy="0.9906" layer="1"/>
<smd name="17" x="-3.5687" y="3.81" dx="4.1402" dy="0.9906" layer="1"/>
<smd name="18" x="3.5687" y="3.81" dx="4.1402" dy="0.9906" layer="1"/>
<smd name="19" x="-3.5687" y="1.27" dx="4.1402" dy="0.9906" layer="1"/>
<smd name="20" x="3.5687" y="1.27" dx="4.1402" dy="0.9906" layer="1"/>
<smd name="21" x="-3.5687" y="-1.27" dx="4.1402" dy="0.9906" layer="1"/>
<smd name="22" x="3.5687" y="-1.27" dx="4.1402" dy="0.9906" layer="1"/>
<smd name="23" x="-3.5687" y="-3.81" dx="4.1402" dy="0.9906" layer="1"/>
<smd name="24" x="3.5687" y="-3.81" dx="4.1402" dy="0.9906" layer="1"/>
<smd name="25" x="-3.5687" y="-6.35" dx="4.1402" dy="0.9906" layer="1"/>
<smd name="26" x="3.5687" y="-6.35" dx="4.1402" dy="0.9906" layer="1"/>
<smd name="27" x="-3.5687" y="-8.89" dx="4.1402" dy="0.9906" layer="1"/>
<smd name="28" x="3.5687" y="-8.89" dx="4.1402" dy="0.9906" layer="1"/>
<smd name="29" x="-3.5687" y="-11.43" dx="4.1402" dy="0.9906" layer="1"/>
<smd name="30" x="3.5687" y="-11.43" dx="4.1402" dy="0.9906" layer="1"/>
<smd name="31" x="-3.5687" y="-13.97" dx="4.1402" dy="0.9906" layer="1"/>
<smd name="32" x="3.5687" y="-13.97" dx="4.1402" dy="0.9906" layer="1"/>
<smd name="33" x="-3.5687" y="-16.51" dx="4.1402" dy="0.9906" layer="1"/>
<smd name="34" x="3.5687" y="-16.51" dx="4.1402" dy="0.9906" layer="1"/>
<smd name="35" x="-3.5687" y="-19.05" dx="4.1402" dy="0.9906" layer="1"/>
<smd name="36" x="3.5687" y="-19.05" dx="4.1402" dy="0.9906" layer="1"/>
<smd name="37" x="-3.5687" y="-21.59" dx="4.1402" dy="0.9906" layer="1"/>
<smd name="38" x="3.5687" y="-21.59" dx="4.1402" dy="0.9906" layer="1"/>
<smd name="39" x="-3.5687" y="-24.13" dx="4.1402" dy="0.9906" layer="1"/>
<smd name="40" x="3.5687" y="-24.13" dx="4.1402" dy="0.9906" layer="1"/>
<wire x1="-4.175" y1="26.365" x2="-3.375" y2="25.695" width="0.2032" layer="21"/>
<wire x1="-3.375" y1="25.665" x2="-4.175" y2="25.095" width="0.2032" layer="21"/>
</package>
</packages>
<symbols>
<symbol name="RASPBERRYPI_40_PIN_GPIO">
<wire x1="-12.7" y1="27.94" x2="12.7" y2="27.94" width="0.254" layer="94"/>
<wire x1="12.7" y1="27.94" x2="12.7" y2="-33.02" width="0.254" layer="94"/>
<wire x1="12.7" y1="-33.02" x2="-12.7" y2="-33.02" width="0.254" layer="94"/>
<wire x1="-12.7" y1="-33.02" x2="-12.7" y2="27.94" width="0.254" layer="94"/>
<pin name="3.3V@1" x="-15.24" y="20.32" length="short" direction="pwr"/>
<pin name="SDA" x="15.24" y="25.4" length="short" rot="R180"/>
<pin name="SCL" x="15.24" y="22.86" length="short" rot="R180"/>
<pin name="GP4" x="15.24" y="-5.08" length="short" rot="R180"/>
<pin name="GND@9" x="-15.24" y="-15.24" length="short" direction="pwr"/>
<pin name="GP17" x="15.24" y="-7.62" length="short" rot="R180"/>
<pin name="GP27" x="15.24" y="-22.86" length="short" rot="R180"/>
<pin name="GP22" x="15.24" y="-12.7" length="short" rot="R180"/>
<pin name="3.3V@17" x="-15.24" y="17.78" length="short" direction="pwr"/>
<pin name="MOSI" x="15.24" y="5.08" length="short" direction="out" rot="R180"/>
<pin name="MISO" x="15.24" y="7.62" length="short" direction="in" rot="R180"/>
<pin name="SCLK" x="15.24" y="10.16" length="short" direction="out" rot="R180"/>
<pin name="GND@25" x="-15.24" y="-22.86" length="short" direction="pwr"/>
<pin name="CE1" x="15.24" y="0" length="short" direction="out" rot="R180"/>
<pin name="CE0" x="15.24" y="2.54" length="short" direction="out" rot="R180"/>
<pin name="GP25" x="15.24" y="-20.32" length="short" rot="R180"/>
<pin name="GND@20" x="-15.24" y="-20.32" length="short" direction="pwr"/>
<pin name="GP24" x="15.24" y="-17.78" length="short" rot="R180"/>
<pin name="GP23" x="15.24" y="-15.24" length="short" rot="R180"/>
<pin name="GND@14" x="-15.24" y="-17.78" length="short" direction="pwr"/>
<pin name="GP18#" x="15.24" y="-10.16" length="short" rot="R180"/>
<pin name="RXI" x="15.24" y="15.24" length="short" direction="in" rot="R180"/>
<pin name="TXO" x="15.24" y="17.78" length="short" direction="out" rot="R180"/>
<pin name="GND@6" x="-15.24" y="-12.7" length="short" direction="pwr"/>
<pin name="5V@4" x="-15.24" y="22.86" length="short" direction="pwr"/>
<pin name="5V@2" x="-15.24" y="25.4" length="short" direction="pwr"/>
<text x="-12.7" y="28.702" size="1.778" layer="95">&gt;Name</text>
<text x="-12.7" y="-35.56" size="1.778" layer="96">&gt;Value</text>
<pin name="GND@30" x="-15.24" y="-25.4" length="short" direction="pwr"/>
<pin name="GND@34" x="-15.24" y="-27.94" length="short" direction="pwr"/>
<pin name="GND@39" x="-15.24" y="-30.48" length="short" direction="pwr"/>
<pin name="ID_SD" x="15.24" y="-27.94" length="short" rot="R180"/>
<pin name="ID_SC" x="15.24" y="-30.48" length="short" rot="R180"/>
<pin name="GP5" x="-15.24" y="12.7" length="short"/>
<pin name="GP6" x="-15.24" y="10.16" length="short"/>
<pin name="GP12" x="-15.24" y="7.62" length="short"/>
<pin name="GP13" x="-15.24" y="5.08" length="short"/>
<pin name="GP19" x="-15.24" y="0" length="short"/>
<pin name="GP16" x="-15.24" y="2.54" length="short"/>
<pin name="GP26" x="-15.24" y="-7.62" length="short"/>
<pin name="GP20" x="-15.24" y="-2.54" length="short"/>
<pin name="GP21" x="-15.24" y="-5.08" length="short"/>
<wire x1="-3.81" y1="12.7" x2="-3.81" y2="-7.62" width="0.254" layer="95"/>
<wire x1="3.556" y1="-27.94" x2="3.556" y2="-30.48" width="0.254" layer="95"/>
</symbol>
</symbols>
<devicesets>
<deviceset name="RASPBERRYPI-40-PIN-GPIO" prefix="JP">
<description>Second Generation Raspberry Pi GPIO Header
&lt;br&gt;&lt;br&gt;
2x20 pin connector, as found on B, B+, A+ models.</description>
<gates>
<gate name="G$1" symbol="RASPBERRYPI_40_PIN_GPIO" x="0" y="2.54"/>
</gates>
<devices>
<device name="" package="2X20-SHROUDED">
<connects>
<connect gate="G$1" pin="3.3V@1" pad="1"/>
<connect gate="G$1" pin="3.3V@17" pad="17"/>
<connect gate="G$1" pin="5V@2" pad="2"/>
<connect gate="G$1" pin="5V@4" pad="4"/>
<connect gate="G$1" pin="CE0" pad="24"/>
<connect gate="G$1" pin="CE1" pad="26"/>
<connect gate="G$1" pin="GND@14" pad="14"/>
<connect gate="G$1" pin="GND@20" pad="20"/>
<connect gate="G$1" pin="GND@25" pad="25"/>
<connect gate="G$1" pin="GND@30" pad="30"/>
<connect gate="G$1" pin="GND@34" pad="34"/>
<connect gate="G$1" pin="GND@39" pad="39"/>
<connect gate="G$1" pin="GND@6" pad="6"/>
<connect gate="G$1" pin="GND@9" pad="9"/>
<connect gate="G$1" pin="GP12" pad="32"/>
<connect gate="G$1" pin="GP13" pad="33"/>
<connect gate="G$1" pin="GP16" pad="36"/>
<connect gate="G$1" pin="GP17" pad="11"/>
<connect gate="G$1" pin="GP18#" pad="12"/>
<connect gate="G$1" pin="GP19" pad="35"/>
<connect gate="G$1" pin="GP20" pad="38"/>
<connect gate="G$1" pin="GP21" pad="40"/>
<connect gate="G$1" pin="GP22" pad="15"/>
<connect gate="G$1" pin="GP23" pad="16"/>
<connect gate="G$1" pin="GP24" pad="18"/>
<connect gate="G$1" pin="GP25" pad="22"/>
<connect gate="G$1" pin="GP26" pad="37"/>
<connect gate="G$1" pin="GP27" pad="13"/>
<connect gate="G$1" pin="GP4" pad="7"/>
<connect gate="G$1" pin="GP5" pad="29"/>
<connect gate="G$1" pin="GP6" pad="31"/>
<connect gate="G$1" pin="ID_SC" pad="28"/>
<connect gate="G$1" pin="ID_SD" pad="27"/>
<connect gate="G$1" pin="MISO" pad="21"/>
<connect gate="G$1" pin="MOSI" pad="19"/>
<connect gate="G$1" pin="RXI" pad="10"/>
<connect gate="G$1" pin="SCL" pad="5"/>
<connect gate="G$1" pin="SCLK" pad="23"/>
<connect gate="G$1" pin="SDA" pad="3"/>
<connect gate="G$1" pin="TXO" pad="8"/>
</connects>
<technologies>
<technology name=""/>
</technologies>
</device>
<device name="-SMT" package="2X20-SHROUDED-SMT">
<connects>
<connect gate="G$1" pin="3.3V@1" pad="1"/>
<connect gate="G$1" pin="3.3V@17" pad="17"/>
<connect gate="G$1" pin="5V@2" pad="2"/>
<connect gate="G$1" pin="5V@4" pad="4"/>
<connect gate="G$1" pin="CE0" pad="24"/>
<connect gate="G$1" pin="CE1" pad="26"/>
<connect gate="G$1" pin="GND@14" pad="14"/>
<connect gate="G$1" pin="GND@20" pad="20"/>
<connect gate="G$1" pin="GND@25" pad="25"/>
<connect gate="G$1" pin="GND@30" pad="30"/>
<connect gate="G$1" pin="GND@34" pad="34"/>
<connect gate="G$1" pin="GND@39" pad="39"/>
<connect gate="G$1" pin="GND@6" pad="6"/>
<connect gate="G$1" pin="GND@9" pad="9"/>
<connect gate="G$1" pin="GP12" pad="32"/>
<connect gate="G$1" pin="GP13" pad="33"/>
<connect gate="G$1" pin="GP16" pad="36"/>
<connect gate="G$1" pin="GP17" pad="11"/>
<connect gate="G$1" pin="GP18#" pad="12"/>
<connect gate="G$1" pin="GP19" pad="35"/>
<connect gate="G$1" pin="GP20" pad="38"/>
<connect gate="G$1" pin="GP21" pad="40"/>
<connect gate="G$1" pin="GP22" pad="15"/>
<connect gate="G$1" pin="GP23" pad="16"/>
<connect gate="G$1" pin="GP24" pad="18"/>
<connect gate="G$1" pin="GP25" pad="22"/>
<connect gate="G$1" pin="GP26" pad="37"/>
<connect gate="G$1" pin="GP27" pad="13"/>
<connect gate="G$1" pin="GP4" pad="7"/>
<connect gate="G$1" pin="GP5" pad="29"/>
<connect gate="G$1" pin="GP6" pad="31"/>
<connect gate="G$1" pin="ID_SC" pad="28"/>
<connect gate="G$1" pin="ID_SD" pad="27"/>
<connect gate="G$1" pin="MISO" pad="21"/>
<connect gate="G$1" pin="MOSI" pad="19"/>
<connect gate="G$1" pin="RXI" pad="10"/>
<connect gate="G$1" pin="SCL" pad="5"/>
<connect gate="G$1" pin="SCLK" pad="23"/>
<connect gate="G$1" pin="SDA" pad="3"/>
<connect gate="G$1" pin="TXO" pad="8"/>
</connects>
<technologies>
<technology name="">
<attribute name="PROD_ID" value="CONN-13143" constant="no"/>
</technology>
</technologies>
</device>
</devices>
</deviceset>
</devicesets>
</library>
<library name="Louw">
<packages>
<package name="MCP3008">
<rectangle x1="-3.81" y1="-2.54" x2="3.81" y2="5.08" layer="21"/>
<pad name="P$1" x="-16.51" y="11.43" drill="0.8" shape="square"/>
<pad name="P$2" x="-16.51" y="8.89" drill="0.8" shape="square"/>
<pad name="P$3" x="-16.51" y="6.35" drill="0.8" shape="square"/>
<pad name="P$4" x="-16.51" y="3.81" drill="0.8" shape="square"/>
<pad name="P$5" x="-16.51" y="1.27" drill="0.8" shape="square"/>
<pad name="P$6" x="-16.51" y="-1.27" drill="0.8" shape="square"/>
<pad name="P$7" x="-16.51" y="-3.81" drill="0.8" shape="square"/>
<pad name="P$8" x="-16.51" y="-6.35" drill="0.8" shape="square"/>
<pad name="P$9" x="-13.97" y="-6.35" drill="0.8" shape="square"/>
<pad name="P$10" x="-13.97" y="-3.81" drill="0.8" shape="square"/>
<pad name="P$11" x="-13.97" y="-1.27" drill="0.8" shape="square"/>
<pad name="P$12" x="-13.97" y="1.27" drill="0.8" shape="square"/>
<pad name="P$13" x="-13.97" y="3.81" drill="0.8" shape="square"/>
<pad name="P$14" x="-13.97" y="6.35" drill="0.8" shape="square"/>
<pad name="P$15" x="-13.97" y="8.89" drill="0.8" shape="square"/>
<pad name="P$16" x="-13.97" y="11.43" drill="0.8" shape="square"/>
</package>
</packages>
<symbols>
<symbol name="MCP3008">
<description>MCP3008 ADC</description>
<pin name="CH0" x="-20.32" y="15.24" length="middle"/>
<pin name="CH1" x="-20.32" y="10.16" length="middle"/>
<pin name="CH2" x="-20.32" y="5.08" length="middle"/>
<pin name="CH3" x="-20.32" y="0" length="middle"/>
<pin name="CH4" x="-20.32" y="-5.08" length="middle"/>
<pin name="CH5" x="-20.32" y="-10.16" length="middle"/>
<pin name="CH6" x="-20.32" y="-15.24" length="middle"/>
<pin name="CH7" x="-20.32" y="-20.32" length="middle"/>
<pin name="V_DD" x="10.16" y="15.24" length="middle" rot="R180"/>
<pin name="V_REF" x="10.16" y="10.16" length="middle" rot="R180"/>
<pin name="AGND" x="10.16" y="5.08" length="middle" rot="R180"/>
<pin name="CLK" x="10.16" y="0" length="middle" rot="R180"/>
<pin name="D_OUT" x="10.16" y="-5.08" length="middle" rot="R180"/>
<pin name="D_IN" x="10.16" y="-10.16" length="middle" rot="R180"/>
<pin name="/CS" x="10.16" y="-15.24" length="middle" rot="R180"/>
<pin name="DGND" x="10.16" y="-20.32" length="middle" rot="R180"/>
<wire x1="-15.24" y1="17.78" x2="-15.24" y2="-22.86" width="0.254" layer="94"/>
<wire x1="-15.24" y1="-22.86" x2="5.08" y2="-22.86" width="0.254" layer="94"/>
<wire x1="5.08" y1="-22.86" x2="5.08" y2="17.78" width="0.254" layer="94"/>
<wire x1="5.08" y1="17.78" x2="-15.24" y2="17.78" width="0.254" layer="94"/>
</symbol>
</symbols>
<devicesets>
<deviceset name="MCP3008">
<description>MCP3008 ADC</description>
<gates>
<gate name="G$1" symbol="MCP3008" x="5.08" y="5.08"/>
</gates>
<devices>
<device name="" package="MCP3008">
<connects>
<connect gate="G$1" pin="/CS" pad="P$1"/>
<connect gate="G$1" pin="AGND" pad="P$2"/>
<connect gate="G$1" pin="CH0" pad="P$3"/>
<connect gate="G$1" pin="CH1" pad="P$4"/>
<connect gate="G$1" pin="CH2" pad="P$5"/>
<connect gate="G$1" pin="CH3" pad="P$6"/>
<connect gate="G$1" pin="CH4" pad="P$7"/>
<connect gate="G$1" pin="CH5" pad="P$8"/>
<connect gate="G$1" pin="CH6" pad="P$9"/>
<connect gate="G$1" pin="CH7" pad="P$10"/>
<connect gate="G$1" pin="CLK" pad="P$11"/>
<connect gate="G$1" pin="DGND" pad="P$12"/>
<connect gate="G$1" pin="D_IN" pad="P$13"/>
<connect gate="G$1" pin="D_OUT" pad="P$14"/>
<connect gate="G$1" pin="V_DD" pad="P$15"/>
<connect gate="G$1" pin="V_REF" pad="P$16"/>
</connects>
<technologies>
<technology name=""/>
</technologies>
</device>
</devices>
</deviceset>
</devicesets>
</library>
<library name="SparkFun-Passives">
<description>&lt;h3&gt;SparkFun Electronics' preferred foot prints&lt;/h3&gt;
In this library you'll find resistors, capacitors, inductors, test points, jumper pads, etc.&lt;br&gt;&lt;br&gt;
We've spent an enormous amount of time creating and checking these footprints and parts, but it is the end user's responsibility to ensure correctness and suitablity for a given componet or application. If you enjoy using this library, please buy one of our products at www.sparkfun.com.
&lt;br&gt;&lt;br&gt;
&lt;b&gt;Licensing:&lt;/b&gt; Creative Commons ShareAlike 4.0 International - https://creativecommons.org/licenses/by-sa/4.0/ 
&lt;br&gt;&lt;br&gt;
You are welcome to use this library for commercial purposes. For attribution, we ask that when you begin to sell your device using our footprint, you email us with a link to the product being sold. We want bragging rights that we helped (in a very small part) to create your 8th world wonder. We would like the opportunity to feature your device on our homepage.</description>
<packages>
<package name="1206">
<wire x1="-2.473" y1="0.983" x2="2.473" y2="0.983" width="0.0508" layer="39"/>
<wire x1="2.473" y1="-0.983" x2="-2.473" y2="-0.983" width="0.0508" layer="39"/>
<wire x1="-2.473" y1="-0.983" x2="-2.473" y2="0.983" width="0.0508" layer="39"/>
<wire x1="2.473" y1="0.983" x2="2.473" y2="-0.983" width="0.0508" layer="39"/>
<wire x1="-0.965" y1="0.787" x2="0.965" y2="0.787" width="0.1016" layer="51"/>
<wire x1="-0.965" y1="-0.787" x2="0.965" y2="-0.787" width="0.1016" layer="51"/>
<smd name="1" x="-1.4" y="0" dx="1.6" dy="1.8" layer="1"/>
<smd name="2" x="1.4" y="0" dx="1.6" dy="1.8" layer="1"/>
<text x="-1.27" y="1.143" size="0.4064" layer="25">&gt;NAME</text>
<text x="-1.397" y="-1.524" size="0.4064" layer="27">&gt;VALUE</text>
<rectangle x1="-1.7018" y1="-0.8509" x2="-0.9517" y2="0.8491" layer="51"/>
<rectangle x1="0.9517" y1="-0.8491" x2="1.7018" y2="0.8509" layer="51"/>
<rectangle x1="-0.1999" y1="-0.4001" x2="0.1999" y2="0.4001" layer="35"/>
</package>
<package name="AXIAL-0.3">
<wire x1="-2.54" y1="0.762" x2="2.54" y2="0.762" width="0.2032" layer="21"/>
<wire x1="2.54" y1="0.762" x2="2.54" y2="0" width="0.2032" layer="21"/>
<wire x1="2.54" y1="0" x2="2.54" y2="-0.762" width="0.2032" layer="21"/>
<wire x1="2.54" y1="-0.762" x2="-2.54" y2="-0.762" width="0.2032" layer="21"/>
<wire x1="-2.54" y1="-0.762" x2="-2.54" y2="0" width="0.2032" layer="21"/>
<wire x1="-2.54" y1="0" x2="-2.54" y2="0.762" width="0.2032" layer="21"/>
<wire x1="2.54" y1="0" x2="2.794" y2="0" width="0.2032" layer="21"/>
<wire x1="-2.54" y1="0" x2="-2.794" y2="0" width="0.2032" layer="21"/>
<pad name="P$1" x="-3.81" y="0" drill="0.9" diameter="1.8796"/>
<pad name="P$2" x="3.81" y="0" drill="0.9" diameter="1.8796"/>
<text x="-2.54" y="1.27" size="0.4064" layer="25" font="vector">&gt;Name</text>
<text x="-2.032" y="-0.381" size="1.016" layer="21" font="vector" ratio="15">&gt;Value</text>
</package>
<package name="R2010">
<description>&lt;b&gt;RESISTOR&lt;/b&gt;&lt;p&gt;
chip</description>
<wire x1="-1.662" y1="1.245" x2="1.662" y2="1.245" width="0.1524" layer="51"/>
<wire x1="-1.637" y1="-1.245" x2="1.687" y2="-1.245" width="0.1524" layer="51"/>
<wire x1="-3.473" y1="1.483" x2="3.473" y2="1.483" width="0.0508" layer="39"/>
<wire x1="3.473" y1="1.483" x2="3.473" y2="-1.483" width="0.0508" layer="39"/>
<wire x1="3.473" y1="-1.483" x2="-3.473" y2="-1.483" width="0.0508" layer="39"/>
<wire x1="-3.473" y1="-1.483" x2="-3.473" y2="1.483" width="0.0508" layer="39"/>
<wire x1="-1.027" y1="1.245" x2="1.027" y2="1.245" width="0.1524" layer="21"/>
<wire x1="-1.002" y1="-1.245" x2="1.016" y2="-1.245" width="0.1524" layer="21"/>
<smd name="1" x="-2.2" y="0" dx="1.8" dy="2.7" layer="1"/>
<smd name="2" x="2.2" y="0" dx="1.8" dy="2.7" layer="1"/>
<text x="-2.54" y="1.5875" size="0.4064" layer="25">&gt;NAME</text>
<text x="-2.54" y="-2.032" size="0.4064" layer="27">&gt;VALUE</text>
<rectangle x1="-2.4892" y1="-1.3208" x2="-1.6393" y2="1.3292" layer="51"/>
<rectangle x1="1.651" y1="-1.3208" x2="2.5009" y2="1.3292" layer="51"/>
</package>
<package name="0805">
<wire x1="-0.3" y1="0.6" x2="0.3" y2="0.6" width="0.1524" layer="21"/>
<wire x1="-0.3" y1="-0.6" x2="0.3" y2="-0.6" width="0.1524" layer="21"/>
<smd name="1" x="-0.9" y="0" dx="0.8" dy="1.2" layer="1"/>
<smd name="2" x="0.9" y="0" dx="0.8" dy="1.2" layer="1"/>
<text x="-0.762" y="0.8255" size="0.4064" layer="25">&gt;NAME</text>
<text x="-1.016" y="-1.397" size="0.4064" layer="27">&gt;VALUE</text>
</package>
<package name="0603-RES">
<wire x1="-1.473" y1="0.983" x2="1.473" y2="0.983" width="0.0508" layer="39"/>
<wire x1="1.473" y1="0.983" x2="1.473" y2="-0.983" width="0.0508" layer="39"/>
<wire x1="1.473" y1="-0.983" x2="-1.473" y2="-0.983" width="0.0508" layer="39"/>
<wire x1="-1.473" y1="-0.983" x2="-1.473" y2="0.983" width="0.0508" layer="39"/>
<wire x1="-0.356" y1="0.432" x2="0.356" y2="0.432" width="0.1016" layer="51"/>
<wire x1="-0.356" y1="-0.419" x2="0.356" y2="-0.419" width="0.1016" layer="51"/>
<smd name="1" x="-0.85" y="0" dx="1.1" dy="1" layer="1"/>
<smd name="2" x="0.85" y="0" dx="1.1" dy="1" layer="1"/>
<text x="-0.889" y="0.762" size="0.4064" layer="25" font="vector">&gt;NAME</text>
<text x="-1.016" y="-1.143" size="0.4064" layer="27" font="vector">&gt;VALUE</text>
<rectangle x1="-0.8382" y1="-0.4699" x2="-0.3381" y2="0.4801" layer="51"/>
<rectangle x1="0.3302" y1="-0.4699" x2="0.8303" y2="0.4801" layer="51"/>
<rectangle x1="-0.1999" y1="-0.3" x2="0.1999" y2="0.3" layer="35"/>
<rectangle x1="-0.2286" y1="-0.381" x2="0.2286" y2="0.381" layer="21"/>
</package>
<package name="0402-RES">
<description>&lt;b&gt;CAPACITOR&lt;/b&gt;&lt;p&gt;
chip</description>
<wire x1="-0.245" y1="0.224" x2="0.245" y2="0.224" width="0.1524" layer="51"/>
<wire x1="0.245" y1="-0.224" x2="-0.245" y2="-0.224" width="0.1524" layer="51"/>
<wire x1="-1.473" y1="0.483" x2="1.473" y2="0.483" width="0.0508" layer="39"/>
<wire x1="1.473" y1="0.483" x2="1.473" y2="-0.483" width="0.0508" layer="39"/>
<wire x1="1.473" y1="-0.483" x2="-1.473" y2="-0.483" width="0.0508" layer="39"/>
<wire x1="-1.473" y1="-0.483" x2="-1.473" y2="0.483" width="0.0508" layer="39"/>
<smd name="1" x="-0.65" y="0" dx="0.7" dy="0.9" layer="1"/>
<smd name="2" x="0.65" y="0" dx="0.7" dy="0.9" layer="1"/>
<text x="-0.889" y="0.6985" size="0.4064" layer="25">&gt;NAME</text>
<text x="-1.0795" y="-1.143" size="0.4064" layer="27">&gt;VALUE</text>
<rectangle x1="-0.554" y1="-0.3048" x2="-0.254" y2="0.2951" layer="51"/>
<rectangle x1="0.2588" y1="-0.3048" x2="0.5588" y2="0.2951" layer="51"/>
<rectangle x1="-0.1999" y1="-0.3" x2="0.1999" y2="0.3" layer="35"/>
<rectangle x1="-0.2032" y1="-0.3556" x2="0.2032" y2="0.3556" layer="21"/>
</package>
<package name="1/6W-RES">
<description>1/6W Thru-hole Resistor - *UNPROVEN*</description>
<wire x1="-1.55" y1="0.85" x2="-1.55" y2="-0.85" width="0.2032" layer="21"/>
<wire x1="-1.55" y1="-0.85" x2="1.55" y2="-0.85" width="0.2032" layer="21"/>
<wire x1="1.55" y1="-0.85" x2="1.55" y2="0.85" width="0.2032" layer="21"/>
<wire x1="1.55" y1="0.85" x2="-1.55" y2="0.85" width="0.2032" layer="21"/>
<pad name="1" x="-2.5" y="0" drill="0.762"/>
<pad name="2" x="2.5" y="0" drill="0.762"/>
<text x="-1.2662" y="0.9552" size="0.6096" layer="25">&gt;NAME</text>
<text x="-1.423" y="-0.4286" size="0.8128" layer="21" ratio="15">&gt;VALUE</text>
</package>
<package name="R2512">
<wire x1="-2.362" y1="1.473" x2="2.387" y2="1.473" width="0.1524" layer="51"/>
<wire x1="-2.362" y1="-1.473" x2="2.387" y2="-1.473" width="0.1524" layer="51"/>
<smd name="1" x="-2.8" y="0" dx="1.8" dy="3.2" layer="1"/>
<smd name="2" x="2.8" y="0" dx="1.8" dy="3.2" layer="1"/>
<text x="-2.54" y="1.905" size="1.27" layer="25">&gt;NAME</text>
<text x="-2.54" y="-3.175" size="1.27" layer="27">&gt;VALUE</text>
<rectangle x1="-3.2004" y1="-1.5494" x2="-2.3505" y2="1.5507" layer="51"/>
<rectangle x1="2.3622" y1="-1.5494" x2="3.2121" y2="1.5507" layer="51"/>
</package>
<package name="AXIAL-0.4">
<description>1/4W Resistor, 0.4" wide&lt;p&gt;

Yageo CFR series &lt;a href="http://www.yageo.com/pdf/yageo/Leaded-R_CFR_2008.pdf"&gt;http://www.yageo.com/pdf/yageo/Leaded-R_CFR_2008.pdf&lt;/a&gt;</description>
<wire x1="-3.15" y1="-1.2" x2="-3.15" y2="1.2" width="0.2032" layer="21"/>
<wire x1="-3.15" y1="1.2" x2="3.15" y2="1.2" width="0.2032" layer="21"/>
<wire x1="3.15" y1="1.2" x2="3.15" y2="-1.2" width="0.2032" layer="21"/>
<wire x1="3.15" y1="-1.2" x2="-3.15" y2="-1.2" width="0.2032" layer="21"/>
<pad name="P$1" x="-5.08" y="0" drill="0.9" diameter="1.8796"/>
<pad name="P$2" x="5.08" y="0" drill="0.9" diameter="1.8796"/>
<text x="-3.175" y="1.905" size="0.8128" layer="25" font="vector" ratio="15">&gt;Name</text>
<text x="-2.286" y="-0.381" size="0.8128" layer="21" font="vector" ratio="15">&gt;Value</text>
</package>
<package name="AXIAL-0.5">
<description>1/2W Resistor, 0.5" wide&lt;p&gt;

Yageo CFR series &lt;a href="http://www.yageo.com/pdf/yageo/Leaded-R_CFR_2008.pdf"&gt;http://www.yageo.com/pdf/yageo/Leaded-R_CFR_2008.pdf&lt;/a&gt;</description>
<wire x1="-4.5" y1="-1.65" x2="-4.5" y2="1.65" width="0.2032" layer="21"/>
<wire x1="-4.5" y1="1.65" x2="4.5" y2="1.65" width="0.2032" layer="21"/>
<wire x1="4.5" y1="1.65" x2="4.5" y2="-1.65" width="0.2032" layer="21"/>
<wire x1="4.5" y1="-1.65" x2="-4.5" y2="-1.65" width="0.2032" layer="21"/>
<pad name="P$1" x="-6.35" y="0" drill="0.9" diameter="1.8796"/>
<pad name="P$2" x="6.35" y="0" drill="0.9" diameter="1.8796"/>
<text x="-4.445" y="2.54" size="0.8128" layer="25" font="vector" ratio="15">&gt;Name</text>
<text x="-3.429" y="-0.381" size="0.8128" layer="21" font="vector" ratio="15">&gt;Value</text>
</package>
<package name="AXIAL-0.6">
<description>1W Resistor, 0.6" wide&lt;p&gt;

Yageo CFR series &lt;a href="http://www.yageo.com/pdf/yageo/Leaded-R_CFR_2008.pdf"&gt;http://www.yageo.com/pdf/yageo/Leaded-R_CFR_2008.pdf&lt;/a&gt;</description>
<wire x1="-5.75" y1="-2.25" x2="-5.75" y2="2.25" width="0.2032" layer="21"/>
<wire x1="-5.75" y1="2.25" x2="5.75" y2="2.25" width="0.2032" layer="21"/>
<wire x1="5.75" y1="2.25" x2="5.75" y2="-2.25" width="0.2032" layer="21"/>
<wire x1="5.75" y1="-2.25" x2="-5.75" y2="-2.25" width="0.2032" layer="21"/>
<pad name="P$1" x="-7.62" y="0" drill="1.2" diameter="1.8796"/>
<pad name="P$2" x="7.62" y="0" drill="1.2" diameter="1.8796"/>
<text x="-5.715" y="3.175" size="0.8128" layer="25" font="vector" ratio="15">&gt;Name</text>
<text x="-4.064" y="-0.381" size="0.8128" layer="21" font="vector" ratio="15">&gt;Value</text>
</package>
<package name="AXIAL-0.8">
<description>2W Resistor, 0.8" wide&lt;p&gt;

Yageo CFR series &lt;a href="http://www.yageo.com/pdf/yageo/Leaded-R_CFR_2008.pdf"&gt;http://www.yageo.com/pdf/yageo/Leaded-R_CFR_2008.pdf&lt;/a&gt;</description>
<wire x1="-7.75" y1="-2.5" x2="-7.75" y2="2.5" width="0.2032" layer="21"/>
<wire x1="-7.75" y1="2.5" x2="7.75" y2="2.5" width="0.2032" layer="21"/>
<wire x1="7.75" y1="2.5" x2="7.75" y2="-2.5" width="0.2032" layer="21"/>
<wire x1="7.75" y1="-2.5" x2="-7.75" y2="-2.5" width="0.2032" layer="21"/>
<pad name="P$1" x="-10.16" y="0" drill="1.2" diameter="1.8796"/>
<pad name="P$2" x="10.16" y="0" drill="1.2" diameter="1.8796"/>
<text x="-7.62" y="3.175" size="0.8128" layer="25" font="vector" ratio="15">&gt;Name</text>
<text x="-5.969" y="-0.381" size="0.8128" layer="21" font="vector" ratio="15">&gt;Value</text>
</package>
<package name="AXIAL-0.3-KIT">
<description>&lt;h3&gt;AXIAL-0.3-KIT&lt;/h3&gt;

Commonly used for 1/4W through-hole resistors. 0.3" pitch between holes.&lt;br&gt;
&lt;br&gt;

&lt;b&gt;Warning:&lt;/b&gt; This is the KIT version of the AXIAL-0.3 package. This package has a smaller diameter top stop mask, which doesn't cover the diameter of the pad. This means only the bottom side of the pads' copper will be exposed. You'll only be able to solder to the bottom side.</description>
<wire x1="-2.54" y1="1.27" x2="2.54" y2="1.27" width="0.254" layer="21"/>
<wire x1="2.54" y1="1.27" x2="2.54" y2="0" width="0.254" layer="21"/>
<wire x1="2.54" y1="0" x2="2.54" y2="-1.27" width="0.254" layer="21"/>
<wire x1="2.54" y1="-1.27" x2="-2.54" y2="-1.27" width="0.254" layer="21"/>
<wire x1="-2.54" y1="-1.27" x2="-2.54" y2="0" width="0.254" layer="21"/>
<wire x1="-2.54" y1="0" x2="-2.54" y2="1.27" width="0.254" layer="21"/>
<wire x1="2.54" y1="0" x2="2.794" y2="0" width="0.254" layer="21"/>
<wire x1="-2.54" y1="0" x2="-2.794" y2="0" width="0.254" layer="21"/>
<pad name="P$1" x="-3.81" y="0" drill="1.016" diameter="2.032" stop="no"/>
<pad name="P$2" x="3.81" y="0" drill="1.016" diameter="2.032" stop="no"/>
<text x="-2.54" y="1.27" size="0.4064" layer="25" font="vector">&gt;Name</text>
<text x="-2.159" y="-0.762" size="1.27" layer="21" font="vector" ratio="15">&gt;Value</text>
<polygon width="0.127" layer="30">
<vertex x="3.8201" y="-0.9449" curve="-90"/>
<vertex x="2.8652" y="-0.0152" curve="-90.011749"/>
<vertex x="3.8176" y="0.9602" curve="-90"/>
<vertex x="4.7676" y="-0.0178" curve="-90.024193"/>
</polygon>
<polygon width="0.127" layer="29">
<vertex x="3.8176" y="-0.4369" curve="-90.012891"/>
<vertex x="3.3731" y="-0.0127" curve="-90"/>
<vertex x="3.8176" y="0.4546" curve="-90"/>
<vertex x="4.2595" y="-0.0025" curve="-90.012967"/>
</polygon>
<polygon width="0.127" layer="30">
<vertex x="-3.8075" y="-0.9525" curve="-90"/>
<vertex x="-4.7624" y="-0.0228" curve="-90.011749"/>
<vertex x="-3.81" y="0.9526" curve="-90"/>
<vertex x="-2.86" y="-0.0254" curve="-90.024193"/>
</polygon>
<polygon width="0.127" layer="29">
<vertex x="-3.81" y="-0.4445" curve="-90.012891"/>
<vertex x="-4.2545" y="-0.0203" curve="-90"/>
<vertex x="-3.81" y="0.447" curve="-90"/>
<vertex x="-3.3681" y="-0.0101" curve="-90.012967"/>
</polygon>
</package>
<package name="AXIAL-0.3EZ">
<description>This is the "EZ" version of the standard .3" spaced resistor package.&lt;br&gt;
It has a reduced top mask to make it harder to install upside-down.</description>
<wire x1="-2.54" y1="0.762" x2="2.54" y2="0.762" width="0.2032" layer="21"/>
<wire x1="2.54" y1="0.762" x2="2.54" y2="0" width="0.2032" layer="21"/>
<wire x1="2.54" y1="0" x2="2.54" y2="-0.762" width="0.2032" layer="21"/>
<wire x1="2.54" y1="-0.762" x2="-2.54" y2="-0.762" width="0.2032" layer="21"/>
<wire x1="-2.54" y1="-0.762" x2="-2.54" y2="0" width="0.2032" layer="21"/>
<wire x1="-2.54" y1="0" x2="-2.54" y2="0.762" width="0.2032" layer="21"/>
<wire x1="2.54" y1="0" x2="2.794" y2="0" width="0.2032" layer="21"/>
<wire x1="-2.54" y1="0" x2="-2.794" y2="0" width="0.2032" layer="21"/>
<pad name="P$1" x="-3.81" y="0" drill="0.9" diameter="1.8796" stop="no"/>
<pad name="P$2" x="3.81" y="0" drill="0.9" diameter="1.8796" stop="no"/>
<text x="-2.54" y="1.27" size="0.4064" layer="25" font="vector">&gt;Name</text>
<text x="-2.032" y="-0.381" size="1.016" layer="21" font="vector" ratio="15">&gt;Value</text>
<circle x="-3.81" y="0" radius="0.508" width="0" layer="29"/>
<circle x="3.81" y="0" radius="0.523634375" width="0" layer="29"/>
<circle x="-3.81" y="0" radius="1.02390625" width="0" layer="30"/>
<circle x="3.81" y="0" radius="1.04726875" width="0" layer="30"/>
</package>
</packages>
<symbols>
<symbol name="RESISTOR">
<wire x1="-2.54" y1="0" x2="-2.159" y2="1.016" width="0.1524" layer="94"/>
<wire x1="-2.159" y1="1.016" x2="-1.524" y2="-1.016" width="0.1524" layer="94"/>
<wire x1="-1.524" y1="-1.016" x2="-0.889" y2="1.016" width="0.1524" layer="94"/>
<wire x1="-0.889" y1="1.016" x2="-0.254" y2="-1.016" width="0.1524" layer="94"/>
<wire x1="-0.254" y1="-1.016" x2="0.381" y2="1.016" width="0.1524" layer="94"/>
<wire x1="0.381" y1="1.016" x2="1.016" y2="-1.016" width="0.1524" layer="94"/>
<wire x1="1.016" y1="-1.016" x2="1.651" y2="1.016" width="0.1524" layer="94"/>
<wire x1="1.651" y1="1.016" x2="2.286" y2="-1.016" width="0.1524" layer="94"/>
<wire x1="2.286" y1="-1.016" x2="2.54" y2="0" width="0.1524" layer="94"/>
<text x="-3.81" y="1.4986" size="1.778" layer="95">&gt;NAME</text>
<text x="-3.81" y="-3.302" size="1.778" layer="96">&gt;VALUE</text>
<pin name="2" x="5.08" y="0" visible="off" length="short" direction="pas" swaplevel="1" rot="R180"/>
<pin name="1" x="-5.08" y="0" visible="off" length="short" direction="pas" swaplevel="1"/>
</symbol>
</symbols>
<devicesets>
<deviceset name="RESISTOR" prefix="R" uservalue="yes">
<description>&lt;b&gt;Resistor&lt;/b&gt;
Basic schematic elements and footprints for 0603, 1206, and PTH resistors.</description>
<gates>
<gate name="G$1" symbol="RESISTOR" x="0" y="0"/>
</gates>
<devices>
<device name="1206" package="1206">
<connects>
<connect gate="G$1" pin="1" pad="1"/>
<connect gate="G$1" pin="2" pad="2"/>
</connects>
<technologies>
<technology name=""/>
</technologies>
</device>
<device name="AXIAL-0.3" package="AXIAL-0.3">
<connects>
<connect gate="G$1" pin="1" pad="P$1"/>
<connect gate="G$1" pin="2" pad="P$2"/>
</connects>
<technologies>
<technology name=""/>
</technologies>
</device>
<device name="2010" package="R2010">
<connects>
<connect gate="G$1" pin="1" pad="1"/>
<connect gate="G$1" pin="2" pad="2"/>
</connects>
<technologies>
<technology name=""/>
</technologies>
</device>
<device name="0805-RES" package="0805">
<connects>
<connect gate="G$1" pin="1" pad="1"/>
<connect gate="G$1" pin="2" pad="2"/>
</connects>
<technologies>
<technology name=""/>
</technologies>
</device>
<device name="0603-RES" package="0603-RES">
<connects>
<connect gate="G$1" pin="1" pad="1"/>
<connect gate="G$1" pin="2" pad="2"/>
</connects>
<technologies>
<technology name=""/>
</technologies>
</device>
<device name="0402-RES" package="0402-RES">
<connects>
<connect gate="G$1" pin="1" pad="1"/>
<connect gate="G$1" pin="2" pad="2"/>
</connects>
<technologies>
<technology name=""/>
</technologies>
</device>
<device name="PTH-1/6W" package="1/6W-RES">
<connects>
<connect gate="G$1" pin="1" pad="1"/>
<connect gate="G$1" pin="2" pad="2"/>
</connects>
<technologies>
<technology name=""/>
</technologies>
</device>
<device name="2512" package="R2512">
<connects>
<connect gate="G$1" pin="1" pad="1"/>
<connect gate="G$1" pin="2" pad="2"/>
</connects>
<technologies>
<technology name=""/>
</technologies>
</device>
<device name="PTH-1/4W" package="AXIAL-0.4">
<connects>
<connect gate="G$1" pin="1" pad="P$1"/>
<connect gate="G$1" pin="2" pad="P$2"/>
</connects>
<technologies>
<technology name=""/>
</technologies>
</device>
<device name="PTH-1/2W" package="AXIAL-0.5">
<connects>
<connect gate="G$1" pin="1" pad="P$1"/>
<connect gate="G$1" pin="2" pad="P$2"/>
</connects>
<technologies>
<technology name=""/>
</technologies>
</device>
<device name="PTH-1W" package="AXIAL-0.6">
<connects>
<connect gate="G$1" pin="1" pad="P$1"/>
<connect gate="G$1" pin="2" pad="P$2"/>
</connects>
<technologies>
<technology name=""/>
</technologies>
</device>
<device name="PTH-2W" package="AXIAL-0.8">
<connects>
<connect gate="G$1" pin="1" pad="P$1"/>
<connect gate="G$1" pin="2" pad="P$2"/>
</connects>
<technologies>
<technology name=""/>
</technologies>
</device>
<device name="KIT" package="AXIAL-0.3-KIT">
<connects>
<connect gate="G$1" pin="1" pad="P$1"/>
<connect gate="G$1" pin="2" pad="P$2"/>
</connects>
<technologies>
<technology name=""/>
</technologies>
</device>
<device name="EZ" package="AXIAL-0.3EZ">
<connects>
<connect gate="G$1" pin="1" pad="P$1"/>
<connect gate="G$1" pin="2" pad="P$2"/>
</connects>
<technologies>
<technology name=""/>
</technologies>
</device>
</devices>
</deviceset>
</devicesets>
</library>
<library name="SparkFun-Aesthetics">
<description>&lt;h3&gt;SparkFun Electronics' preferred foot prints&lt;/h3&gt;
In this library you'll find non-functional items- supply symbols, logos, notations, frame blocks, etc.&lt;br&gt;&lt;br&gt;
We've spent an enormous amount of time creating and checking these footprints and parts, but it is the end user's responsibility to ensure correctness and suitablity for a given componet or application. If you enjoy using this library, please buy one of our products at www.sparkfun.com.
&lt;br&gt;&lt;br&gt;
&lt;b&gt;Licensing:&lt;/b&gt; Creative Commons ShareAlike 4.0 International - https://creativecommons.org/licenses/by-sa/4.0/ 
&lt;br&gt;&lt;br&gt;
You are welcome to use this library for commercial purposes. For attribution, we ask that when you begin to sell your device using our footprint, you email us with a link to the product being sold. We want bragging rights that we helped (in a very small part) to create your 8th world wonder. We would like the opportunity to feature your device on our homepage.</description>
<packages>
</packages>
<symbols>
<symbol name="DGND">
<wire x1="-1.905" y1="0" x2="1.905" y2="0" width="0.254" layer="94"/>
<text x="-2.54" y="-2.54" size="1.778" layer="96">&gt;VALUE</text>
<pin name="GND" x="0" y="2.54" visible="off" length="short" direction="sup" rot="R270"/>
</symbol>
</symbols>
<devicesets>
<deviceset name="GND" prefix="GND">
<description>&lt;b&gt;SUPPLY SYMBOL&lt;/b&gt;</description>
<gates>
<gate name="1" symbol="DGND" x="0" y="0"/>
</gates>
<devices>
<device name="">
<technologies>
<technology name=""/>
</technologies>
</device>
</devices>
</deviceset>
</devicesets>
</library>
</libraries>
<attributes>
</attributes>
<variantdefs>
</variantdefs>
<classes>
<class number="0" name="default" width="0" drill="0">
</class>
</classes>
<parts>
<part name="JP1" library="SparkFun-Boards" deviceset="RASPBERRYPI-40-PIN-GPIO" device=""/>
<part name="MCP3008" library="Louw" deviceset="MCP3008" device=""/>
<part name="R1" library="SparkFun-Passives" deviceset="RESISTOR" device="EZ" value="30K"/>
<part name="R2" library="SparkFun-Passives" deviceset="RESISTOR" device="EZ" value="160K"/>
<part name="R3" library="SparkFun-Passives" deviceset="RESISTOR" device="EZ" value="290K"/>
<part name="R4" library="SparkFun-Passives" deviceset="RESISTOR" device="EZ" value="420K"/>
<part name="R5" library="SparkFun-Passives" deviceset="RESISTOR" device="EZ" value="550K"/>
<part name="R6" library="SparkFun-Passives" deviceset="RESISTOR" device="EZ" value="680K"/>
<part name="R7" library="SparkFun-Passives" deviceset="RESISTOR" device="EZ" value="810K"/>
<part name="R8" library="SparkFun-Passives" deviceset="RESISTOR" device="EZ" value="940K"/>
<part name="R9" library="SparkFun-Passives" deviceset="RESISTOR" device="EZ" value="100K"/>
<part name="R10" library="SparkFun-Passives" deviceset="RESISTOR" device="EZ" value="100K"/>
<part name="R11" library="SparkFun-Passives" deviceset="RESISTOR" device="EZ" value="100K"/>
<part name="R12" library="SparkFun-Passives" deviceset="RESISTOR" device="EZ" value="100K"/>
<part name="R13" library="SparkFun-Passives" deviceset="RESISTOR" device="EZ" value="100K"/>
<part name="R14" library="SparkFun-Passives" deviceset="RESISTOR" device="EZ" value="100K"/>
<part name="R15" library="SparkFun-Passives" deviceset="RESISTOR" device="EZ" value="100K"/>
<part name="R16" library="SparkFun-Passives" deviceset="RESISTOR" device="EZ" value="100K"/>
<part name="GND1" library="SparkFun-Aesthetics" deviceset="GND" device=""/>
</parts>
<sheets>
<sheet>
<plain>
<text x="94.234" y="71.374" size="1.778" layer="91">MCP3008</text>
<text x="-2.032" y="67.818" size="1.778" layer="91">Cell 1</text>
<text x="-2.032" y="62.738" size="1.778" layer="91">Cell 2</text>
<text x="-2.032" y="57.404" size="1.778" layer="91">Cell 3</text>
<text x="-1.778" y="52.324" size="1.778" layer="91">Cell 4</text>
<text x="-1.778" y="47.498" size="1.778" layer="91">Cell 5</text>
<text x="-1.778" y="42.418" size="1.778" layer="91">Cell 6</text>
<text x="-1.778" y="37.084" size="1.778" layer="91">Cell 7</text>
<text x="-1.778" y="32.258" size="1.778" layer="91">Cell 8</text>
</plain>
<instances>
<instance part="JP1" gate="G$1" x="165.1" y="53.34"/>
<instance part="MCP3008" gate="G$1" x="109.22" y="53.34"/>
<instance part="R1" gate="G$1" x="12.7" y="68.58"/>
<instance part="R2" gate="G$1" x="20.32" y="63.5"/>
<instance part="R3" gate="G$1" x="12.7" y="58.42"/>
<instance part="R4" gate="G$1" x="20.32" y="53.34"/>
<instance part="R5" gate="G$1" x="12.7" y="48.26"/>
<instance part="R6" gate="G$1" x="20.32" y="43.18"/>
<instance part="R7" gate="G$1" x="12.7" y="38.1"/>
<instance part="R8" gate="G$1" x="20.32" y="33.02"/>
<instance part="R9" gate="G$1" x="30.48" y="20.32" rot="R90"/>
<instance part="R10" gate="G$1" x="38.1" y="20.32" rot="R90"/>
<instance part="R11" gate="G$1" x="45.72" y="20.32" rot="R90"/>
<instance part="R12" gate="G$1" x="53.34" y="20.32" rot="R90"/>
<instance part="R13" gate="G$1" x="60.96" y="20.32" rot="R90"/>
<instance part="R14" gate="G$1" x="68.58" y="20.32" rot="R90"/>
<instance part="R15" gate="G$1" x="76.2" y="20.32" rot="R90"/>
<instance part="R16" gate="G$1" x="83.82" y="20.32" rot="R90"/>
<instance part="GND1" gate="1" x="83.82" y="0"/>
</instances>
<busses>
</busses>
<nets>
<net name="N$1" class="0">
<segment>
<pinref part="MCP3008" gate="G$1" pin="CH0"/>
<wire x1="88.9" y1="68.58" x2="30.48" y2="68.58" width="0.1524" layer="91"/>
<pinref part="R1" gate="G$1" pin="2"/>
<pinref part="R9" gate="G$1" pin="2"/>
<wire x1="30.48" y1="68.58" x2="17.78" y2="68.58" width="0.1524" layer="91"/>
<wire x1="30.48" y1="25.4" x2="30.48" y2="68.58" width="0.1524" layer="91"/>
<junction x="30.48" y="68.58"/>
</segment>
</net>
<net name="N$2" class="0">
<segment>
<pinref part="MCP3008" gate="G$1" pin="CH1"/>
<wire x1="88.9" y1="63.5" x2="38.1" y2="63.5" width="0.1524" layer="91"/>
<pinref part="R2" gate="G$1" pin="2"/>
<pinref part="R10" gate="G$1" pin="2"/>
<wire x1="38.1" y1="63.5" x2="25.4" y2="63.5" width="0.1524" layer="91"/>
<wire x1="38.1" y1="25.4" x2="38.1" y2="63.5" width="0.1524" layer="91"/>
<junction x="38.1" y="63.5"/>
</segment>
</net>
<net name="N$3" class="0">
<segment>
<pinref part="MCP3008" gate="G$1" pin="CH2"/>
<wire x1="88.9" y1="58.42" x2="45.72" y2="58.42" width="0.1524" layer="91"/>
<pinref part="R3" gate="G$1" pin="2"/>
<pinref part="R11" gate="G$1" pin="2"/>
<wire x1="45.72" y1="58.42" x2="17.78" y2="58.42" width="0.1524" layer="91"/>
<wire x1="45.72" y1="25.4" x2="45.72" y2="58.42" width="0.1524" layer="91"/>
<junction x="45.72" y="58.42"/>
</segment>
</net>
<net name="N$4" class="0">
<segment>
<pinref part="MCP3008" gate="G$1" pin="CH3"/>
<wire x1="88.9" y1="53.34" x2="53.34" y2="53.34" width="0.1524" layer="91"/>
<pinref part="R4" gate="G$1" pin="2"/>
<pinref part="R12" gate="G$1" pin="2"/>
<wire x1="53.34" y1="53.34" x2="25.4" y2="53.34" width="0.1524" layer="91"/>
<wire x1="53.34" y1="25.4" x2="53.34" y2="53.34" width="0.1524" layer="91"/>
<junction x="53.34" y="53.34"/>
</segment>
</net>
<net name="N$5" class="0">
<segment>
<pinref part="MCP3008" gate="G$1" pin="CH4"/>
<wire x1="88.9" y1="48.26" x2="60.96" y2="48.26" width="0.1524" layer="91"/>
<pinref part="R5" gate="G$1" pin="2"/>
<pinref part="R13" gate="G$1" pin="2"/>
<wire x1="60.96" y1="48.26" x2="17.78" y2="48.26" width="0.1524" layer="91"/>
<wire x1="60.96" y1="25.4" x2="60.96" y2="48.26" width="0.1524" layer="91"/>
<junction x="60.96" y="48.26"/>
</segment>
</net>
<net name="N$6" class="0">
<segment>
<pinref part="MCP3008" gate="G$1" pin="CH5"/>
<wire x1="88.9" y1="43.18" x2="68.58" y2="43.18" width="0.1524" layer="91"/>
<pinref part="R6" gate="G$1" pin="2"/>
<pinref part="R14" gate="G$1" pin="2"/>
<wire x1="68.58" y1="43.18" x2="25.4" y2="43.18" width="0.1524" layer="91"/>
<wire x1="68.58" y1="25.4" x2="68.58" y2="43.18" width="0.1524" layer="91"/>
<junction x="68.58" y="43.18"/>
</segment>
</net>
<net name="N$7" class="0">
<segment>
<pinref part="MCP3008" gate="G$1" pin="CH6"/>
<wire x1="88.9" y1="38.1" x2="76.2" y2="38.1" width="0.1524" layer="91"/>
<pinref part="R7" gate="G$1" pin="2"/>
<pinref part="R15" gate="G$1" pin="2"/>
<wire x1="76.2" y1="38.1" x2="17.78" y2="38.1" width="0.1524" layer="91"/>
<wire x1="76.2" y1="25.4" x2="76.2" y2="38.1" width="0.1524" layer="91"/>
<junction x="76.2" y="38.1"/>
</segment>
</net>
<net name="N$8" class="0">
<segment>
<pinref part="MCP3008" gate="G$1" pin="CH7"/>
<wire x1="88.9" y1="33.02" x2="83.82" y2="33.02" width="0.1524" layer="91"/>
<pinref part="R8" gate="G$1" pin="2"/>
<pinref part="R16" gate="G$1" pin="2"/>
<wire x1="83.82" y1="33.02" x2="25.4" y2="33.02" width="0.1524" layer="91"/>
<wire x1="83.82" y1="25.4" x2="83.82" y2="33.02" width="0.1524" layer="91"/>
<junction x="83.82" y="33.02"/>
</segment>
</net>
<net name="N$9" class="0">
<segment>
<pinref part="R1" gate="G$1" pin="1"/>
<wire x1="7.62" y1="68.58" x2="5.08" y2="68.58" width="0.1524" layer="91"/>
<junction x="5.08" y="68.58"/>
</segment>
</net>
<net name="N$10" class="0">
<segment>
<pinref part="R2" gate="G$1" pin="1"/>
<wire x1="15.24" y1="63.5" x2="5.08" y2="63.5" width="0.1524" layer="91"/>
<junction x="5.08" y="63.5"/>
</segment>
</net>
<net name="N$11" class="0">
<segment>
<pinref part="R3" gate="G$1" pin="1"/>
<wire x1="7.62" y1="58.42" x2="5.08" y2="58.42" width="0.1524" layer="91"/>
<junction x="5.08" y="58.42"/>
</segment>
</net>
<net name="N$12" class="0">
<segment>
<pinref part="R4" gate="G$1" pin="1"/>
<wire x1="15.24" y1="53.34" x2="5.08" y2="53.34" width="0.1524" layer="91"/>
<junction x="5.08" y="53.34"/>
</segment>
</net>
<net name="N$13" class="0">
<segment>
<pinref part="R5" gate="G$1" pin="1"/>
<wire x1="7.62" y1="48.26" x2="5.08" y2="48.26" width="0.1524" layer="91"/>
<junction x="5.08" y="48.26"/>
</segment>
</net>
<net name="N$14" class="0">
<segment>
<pinref part="R6" gate="G$1" pin="1"/>
<wire x1="15.24" y1="43.18" x2="5.08" y2="43.18" width="0.1524" layer="91"/>
<junction x="5.08" y="43.18"/>
</segment>
</net>
<net name="N$15" class="0">
<segment>
<pinref part="R7" gate="G$1" pin="1"/>
<wire x1="7.62" y1="38.1" x2="5.08" y2="38.1" width="0.1524" layer="91"/>
<junction x="5.08" y="38.1"/>
</segment>
</net>
<net name="N$16" class="0">
<segment>
<pinref part="R8" gate="G$1" pin="1"/>
<wire x1="15.24" y1="33.02" x2="5.08" y2="33.02" width="0.1524" layer="91"/>
<junction x="5.08" y="33.02"/>
</segment>
</net>
<net name="GND" class="0">
<segment>
<pinref part="R9" gate="G$1" pin="1"/>
<wire x1="30.48" y1="15.24" x2="30.48" y2="7.62" width="0.1524" layer="91"/>
<pinref part="R16" gate="G$1" pin="1"/>
<wire x1="30.48" y1="7.62" x2="38.1" y2="7.62" width="0.1524" layer="91"/>
<wire x1="76.2" y1="7.62" x2="83.82" y2="7.62" width="0.1524" layer="91"/>
<wire x1="83.82" y1="7.62" x2="83.82" y2="15.24" width="0.1524" layer="91"/>
<pinref part="R10" gate="G$1" pin="1"/>
<wire x1="38.1" y1="15.24" x2="38.1" y2="7.62" width="0.1524" layer="91"/>
<pinref part="R15" gate="G$1" pin="1"/>
<wire x1="38.1" y1="7.62" x2="45.72" y2="7.62" width="0.1524" layer="91"/>
<wire x1="68.58" y1="7.62" x2="76.2" y2="7.62" width="0.1524" layer="91"/>
<wire x1="76.2" y1="7.62" x2="76.2" y2="15.24" width="0.1524" layer="91"/>
<pinref part="R11" gate="G$1" pin="1"/>
<wire x1="45.72" y1="15.24" x2="45.72" y2="7.62" width="0.1524" layer="91"/>
<pinref part="R14" gate="G$1" pin="1"/>
<wire x1="45.72" y1="7.62" x2="53.34" y2="7.62" width="0.1524" layer="91"/>
<wire x1="60.96" y1="7.62" x2="68.58" y2="7.62" width="0.1524" layer="91"/>
<wire x1="68.58" y1="7.62" x2="68.58" y2="15.24" width="0.1524" layer="91"/>
<pinref part="R12" gate="G$1" pin="1"/>
<wire x1="53.34" y1="15.24" x2="53.34" y2="7.62" width="0.1524" layer="91"/>
<pinref part="R13" gate="G$1" pin="1"/>
<wire x1="53.34" y1="7.62" x2="60.96" y2="7.62" width="0.1524" layer="91"/>
<wire x1="60.96" y1="7.62" x2="60.96" y2="15.24" width="0.1524" layer="91"/>
<junction x="38.1" y="7.62"/>
<junction x="45.72" y="7.62"/>
<junction x="53.34" y="7.62"/>
<junction x="60.96" y="7.62"/>
<junction x="68.58" y="7.62"/>
<junction x="76.2" y="7.62"/>
<wire x1="83.82" y1="7.62" x2="83.82" y2="2.54" width="0.1524" layer="91"/>
<pinref part="GND1" gate="1" pin="GND"/>
<pinref part="MCP3008" gate="G$1" pin="DGND"/>
<wire x1="119.38" y1="33.02" x2="121.92" y2="33.02" width="0.1524" layer="91"/>
<wire x1="121.92" y1="33.02" x2="121.92" y2="22.86" width="0.1524" layer="91"/>
<wire x1="121.92" y1="20.32" x2="121.92" y2="7.62" width="0.1524" layer="91"/>
<wire x1="121.92" y1="7.62" x2="83.82" y2="7.62" width="0.1524" layer="91"/>
<pinref part="MCP3008" gate="G$1" pin="AGND"/>
<wire x1="119.38" y1="58.42" x2="121.92" y2="58.42" width="0.1524" layer="91"/>
<wire x1="121.92" y1="58.42" x2="121.92" y2="33.02" width="0.1524" layer="91"/>
<junction x="121.92" y="33.02"/>
<pinref part="JP1" gate="G$1" pin="GND@39"/>
<wire x1="149.86" y1="22.86" x2="121.92" y2="22.86" width="0.1524" layer="91"/>
<wire x1="121.92" y1="22.86" x2="121.92" y2="20.32" width="0.1524" layer="91"/>
<junction x="121.92" y="22.86"/>
</segment>
</net>
<net name="N$18" class="0">
<segment>
<pinref part="MCP3008" gate="G$1" pin="V_DD"/>
<wire x1="119.38" y1="68.58" x2="144.78" y2="68.58" width="0.1524" layer="91"/>
<wire x1="144.78" y1="68.58" x2="144.78" y2="73.66" width="0.1524" layer="91"/>
<pinref part="JP1" gate="G$1" pin="3.3V@1"/>
<wire x1="144.78" y1="73.66" x2="149.86" y2="73.66" width="0.1524" layer="91"/>
<pinref part="MCP3008" gate="G$1" pin="V_REF"/>
<wire x1="119.38" y1="63.5" x2="144.78" y2="63.5" width="0.1524" layer="91"/>
<wire x1="144.78" y1="63.5" x2="144.78" y2="68.58" width="0.1524" layer="91"/>
<junction x="144.78" y="68.58"/>
</segment>
</net>
<net name="N$20" class="0">
<segment>
<pinref part="MCP3008" gate="G$1" pin="/CS"/>
<wire x1="119.38" y1="38.1" x2="139.7" y2="38.1" width="0.1524" layer="91"/>
<wire x1="139.7" y1="38.1" x2="139.7" y2="10.16" width="0.1524" layer="91"/>
<wire x1="139.7" y1="10.16" x2="187.96" y2="10.16" width="0.1524" layer="91"/>
<wire x1="187.96" y1="10.16" x2="187.96" y2="55.88" width="0.1524" layer="91"/>
<pinref part="JP1" gate="G$1" pin="CE0"/>
<wire x1="187.96" y1="55.88" x2="180.34" y2="55.88" width="0.1524" layer="91"/>
</segment>
</net>
<net name="N$21" class="0">
<segment>
<pinref part="JP1" gate="G$1" pin="SCLK"/>
<wire x1="180.34" y1="63.5" x2="182.88" y2="63.5" width="0.1524" layer="91"/>
<wire x1="182.88" y1="63.5" x2="182.88" y2="86.36" width="0.1524" layer="91"/>
<wire x1="182.88" y1="86.36" x2="124.46" y2="86.36" width="0.1524" layer="91"/>
<wire x1="124.46" y1="86.36" x2="124.46" y2="53.34" width="0.1524" layer="91"/>
<pinref part="MCP3008" gate="G$1" pin="CLK"/>
<wire x1="124.46" y1="53.34" x2="119.38" y2="53.34" width="0.1524" layer="91"/>
</segment>
</net>
<net name="N$23" class="0">
<segment>
<pinref part="MCP3008" gate="G$1" pin="D_OUT"/>
<wire x1="119.38" y1="48.26" x2="129.54" y2="48.26" width="0.1524" layer="91"/>
<wire x1="129.54" y1="48.26" x2="129.54" y2="91.44" width="0.1524" layer="91"/>
<wire x1="129.54" y1="91.44" x2="187.96" y2="91.44" width="0.1524" layer="91"/>
<wire x1="187.96" y1="91.44" x2="187.96" y2="58.42" width="0.1524" layer="91"/>
<pinref part="JP1" gate="G$1" pin="MOSI"/>
<wire x1="187.96" y1="58.42" x2="180.34" y2="58.42" width="0.1524" layer="91"/>
</segment>
</net>
<net name="N$24" class="0">
<segment>
<pinref part="MCP3008" gate="G$1" pin="D_IN"/>
<wire x1="119.38" y1="43.18" x2="134.62" y2="43.18" width="0.1524" layer="91"/>
<wire x1="134.62" y1="43.18" x2="134.62" y2="88.9" width="0.1524" layer="91"/>
<wire x1="134.62" y1="88.9" x2="185.42" y2="88.9" width="0.1524" layer="91"/>
<wire x1="185.42" y1="88.9" x2="185.42" y2="60.96" width="0.1524" layer="91"/>
<pinref part="JP1" gate="G$1" pin="MISO"/>
<wire x1="185.42" y1="60.96" x2="180.34" y2="60.96" width="0.1524" layer="91"/>
</segment>
</net>
</nets>
</sheet>
</sheets>
</schematic>
</drawing>
</eagle>
