<?xml version="1.0" encoding="utf-8"?>
<!DOCTYPE eagle SYSTEM "eagle.dtd">
<eagle version="7.4.0">
<drawing>
<settings>
<setting alwaysvectorfont="no"/>
<setting verticaltext="up"/>
</settings>
<grid distance="0.1" unitdist="inch" unit="inch" style="lines" multiple="1" display="no" altdistance="0.01" altunitdist="inch" altunit="inch"/>
<layers>
<layer number="1" name="Top" color="4" fill="1" visible="no" active="no"/>
<layer number="16" name="Bottom" color="1" fill="1" visible="no" active="no"/>
<layer number="17" name="Pads" color="2" fill="1" visible="no" active="no"/>
<layer number="18" name="Vias" color="2" fill="1" visible="no" active="no"/>
<layer number="19" name="Unrouted" color="6" fill="1" visible="no" active="no"/>
<layer number="20" name="Dimension" color="15" fill="1" visible="no" active="no"/>
<layer number="21" name="tPlace" color="16" fill="1" visible="no" active="no"/>
<layer number="22" name="bPlace" color="7" fill="1" visible="no" active="no"/>
<layer number="23" name="tOrigins" color="15" fill="1" visible="no" active="no"/>
<layer number="24" name="bOrigins" color="15" fill="1" visible="no" active="no"/>
<layer number="25" name="tNames" color="7" fill="1" visible="no" active="no"/>
<layer number="26" name="bNames" color="7" fill="1" visible="no" active="no"/>
<layer number="27" name="tValues" color="7" fill="1" visible="no" active="no"/>
<layer number="28" name="bValues" color="7" fill="1" visible="no" active="no"/>
<layer number="29" name="tStop" color="7" fill="3" visible="no" active="no"/>
<layer number="30" name="bStop" color="7" fill="6" visible="no" active="no"/>
<layer number="31" name="tCream" color="11" fill="4" visible="no" active="no"/>
<layer number="32" name="bCream" color="7" fill="5" visible="no" active="no"/>
<layer number="33" name="tFinish" color="6" fill="3" visible="no" active="no"/>
<layer number="34" name="bFinish" color="6" fill="6" visible="no" active="no"/>
<layer number="35" name="tGlue" color="7" fill="4" visible="no" active="no"/>
<layer number="36" name="bGlue" color="7" fill="5" visible="no" active="no"/>
<layer number="37" name="tTest" color="7" fill="1" visible="no" active="no"/>
<layer number="38" name="bTest" color="7" fill="1" visible="no" active="no"/>
<layer number="39" name="tKeepout" color="4" fill="11" visible="no" active="no"/>
<layer number="40" name="bKeepout" color="1" fill="11" visible="no" active="no"/>
<layer number="41" name="tRestrict" color="4" fill="10" visible="no" active="no"/>
<layer number="42" name="bRestrict" color="1" fill="10" visible="no" active="no"/>
<layer number="43" name="vRestrict" color="2" fill="10" visible="no" active="no"/>
<layer number="44" name="Drills" color="7" fill="1" visible="no" active="no"/>
<layer number="45" name="Holes" color="7" fill="1" visible="no" active="no"/>
<layer number="46" name="Milling" color="3" fill="1" visible="no" active="no"/>
<layer number="47" name="Measures" color="7" fill="1" visible="no" active="no"/>
<layer number="48" name="Document" color="7" fill="1" visible="no" active="no"/>
<layer number="49" name="Reference" color="7" fill="1" visible="no" active="no"/>
<layer number="50" name="dxf" color="7" fill="1" visible="no" active="no"/>
<layer number="51" name="tDocu" color="14" fill="1" visible="no" active="no"/>
<layer number="52" name="bDocu" color="7" fill="1" visible="no" active="no"/>
<layer number="53" name="tGND_GNDA" color="7" fill="9" visible="no" active="no"/>
<layer number="54" name="bGND_GNDA" color="1" fill="9" visible="no" active="no"/>
<layer number="56" name="wert" color="7" fill="1" visible="no" active="no"/>
<layer number="57" name="tCAD" color="7" fill="1" visible="no" active="no"/>
<layer number="59" name="tCarbon" color="7" fill="1" visible="no" active="no"/>
<layer number="60" name="bCarbon" color="7" fill="1" visible="no" active="no"/>
<layer number="90" name="Modules" color="5" fill="1" visible="yes" active="yes"/>
<layer number="91" name="Nets" color="2" fill="1" visible="yes" active="yes"/>
<layer number="92" name="Busses" color="1" fill="1" visible="yes" active="yes"/>
<layer number="93" name="Pins" color="2" fill="1" visible="no" active="yes"/>
<layer number="94" name="Symbols" color="4" fill="1" visible="yes" active="yes"/>
<layer number="95" name="Names" color="7" fill="1" visible="yes" active="yes"/>
<layer number="96" name="Values" color="7" fill="1" visible="yes" active="yes"/>
<layer number="97" name="Info" color="7" fill="1" visible="yes" active="yes"/>
<layer number="98" name="Guide" color="6" fill="1" visible="yes" active="yes"/>
<layer number="99" name="SpiceOrder" color="7" fill="1" visible="yes" active="yes"/>
<layer number="100" name="Muster" color="7" fill="1" visible="no" active="no"/>
<layer number="101" name="Patch_Top" color="12" fill="4" visible="no" active="yes"/>
<layer number="102" name="Vscore" color="7" fill="1" visible="no" active="yes"/>
<layer number="103" name="tMap" color="7" fill="1" visible="no" active="yes"/>
<layer number="104" name="Name" color="16" fill="1" visible="no" active="yes"/>
<layer number="105" name="tPlate" color="7" fill="1" visible="no" active="yes"/>
<layer number="106" name="bPlate" color="7" fill="1" visible="no" active="yes"/>
<layer number="107" name="Crop" color="7" fill="1" visible="no" active="yes"/>
<layer number="108" name="tplace-old" color="10" fill="1" visible="no" active="yes"/>
<layer number="109" name="ref-old" color="11" fill="1" visible="no" active="yes"/>
<layer number="110" name="fp0" color="7" fill="1" visible="no" active="yes"/>
<layer number="111" name="LPC17xx" color="7" fill="1" visible="no" active="yes"/>
<layer number="112" name="tSilk" color="7" fill="1" visible="no" active="yes"/>
<layer number="113" name="IDFDebug" color="4" fill="1" visible="no" active="yes"/>
<layer number="116" name="Patch_BOT" color="9" fill="4" visible="no" active="yes"/>
<layer number="118" name="Rect_Pads" color="7" fill="1" visible="no" active="yes"/>
<layer number="121" name="_tsilk" color="7" fill="1" visible="no" active="yes"/>
<layer number="122" name="_bsilk" color="7" fill="1" visible="no" active="yes"/>
<layer number="123" name="tTestmark" color="7" fill="1" visible="no" active="yes"/>
<layer number="124" name="bTestmark" color="7" fill="1" visible="no" active="yes"/>
<layer number="125" name="_tNames" color="7" fill="1" visible="no" active="yes"/>
<layer number="126" name="_bNames" color="7" fill="1" visible="no" active="yes"/>
<layer number="127" name="_tValues" color="7" fill="1" visible="no" active="yes"/>
<layer number="128" name="_bValues" color="7" fill="1" visible="no" active="yes"/>
<layer number="129" name="Mask" color="7" fill="1" visible="no" active="yes"/>
<layer number="131" name="tAdjust" color="7" fill="1" visible="no" active="yes"/>
<layer number="132" name="bAdjust" color="7" fill="1" visible="no" active="yes"/>
<layer number="144" name="Drill_legend" color="7" fill="1" visible="no" active="yes"/>
<layer number="150" name="Notes" color="7" fill="1" visible="no" active="yes"/>
<layer number="151" name="HeatSink" color="7" fill="1" visible="no" active="yes"/>
<layer number="152" name="_bDocu" color="7" fill="1" visible="no" active="yes"/>
<layer number="153" name="FabDoc1" color="7" fill="1" visible="no" active="yes"/>
<layer number="154" name="FabDoc2" color="7" fill="1" visible="no" active="yes"/>
<layer number="155" name="FabDoc3" color="7" fill="1" visible="no" active="yes"/>
<layer number="199" name="Contour" color="7" fill="1" visible="no" active="yes"/>
<layer number="200" name="200bmp" color="1" fill="10" visible="no" active="yes"/>
<layer number="201" name="201bmp" color="2" fill="10" visible="no" active="yes"/>
<layer number="202" name="202bmp" color="3" fill="10" visible="no" active="yes"/>
<layer number="203" name="203bmp" color="4" fill="10" visible="no" active="yes"/>
<layer number="204" name="204bmp" color="5" fill="10" visible="no" active="yes"/>
<layer number="205" name="205bmp" color="6" fill="10" visible="no" active="yes"/>
<layer number="206" name="206bmp" color="7" fill="10" visible="no" active="yes"/>
<layer number="207" name="207bmp" color="8" fill="10" visible="no" active="yes"/>
<layer number="208" name="208bmp" color="9" fill="10" visible="no" active="yes"/>
<layer number="209" name="209bmp" color="7" fill="1" visible="no" active="yes"/>
<layer number="210" name="210bmp" color="7" fill="1" visible="no" active="yes"/>
<layer number="211" name="211bmp" color="7" fill="1" visible="no" active="yes"/>
<layer number="212" name="212bmp" color="7" fill="1" visible="no" active="yes"/>
<layer number="213" name="213bmp" color="7" fill="1" visible="no" active="yes"/>
<layer number="214" name="214bmp" color="7" fill="1" visible="no" active="yes"/>
<layer number="215" name="215bmp" color="7" fill="1" visible="no" active="yes"/>
<layer number="216" name="216bmp" color="7" fill="1" visible="no" active="yes"/>
<layer number="217" name="217bmp" color="18" fill="1" visible="no" active="no"/>
<layer number="218" name="218bmp" color="19" fill="1" visible="no" active="no"/>
<layer number="219" name="219bmp" color="20" fill="1" visible="no" active="no"/>
<layer number="220" name="220bmp" color="21" fill="1" visible="no" active="no"/>
<layer number="221" name="221bmp" color="22" fill="1" visible="no" active="no"/>
<layer number="222" name="222bmp" color="23" fill="1" visible="no" active="no"/>
<layer number="223" name="223bmp" color="24" fill="1" visible="no" active="no"/>
<layer number="224" name="224bmp" color="25" fill="1" visible="no" active="no"/>
<layer number="225" name="225bmp" color="7" fill="1" visible="no" active="yes"/>
<layer number="226" name="226bmp" color="7" fill="1" visible="no" active="yes"/>
<layer number="227" name="227bmp" color="7" fill="1" visible="no" active="yes"/>
<layer number="228" name="228bmp" color="7" fill="1" visible="no" active="yes"/>
<layer number="229" name="229bmp" color="7" fill="1" visible="no" active="yes"/>
<layer number="230" name="230bmp" color="7" fill="1" visible="no" active="yes"/>
<layer number="231" name="231bmp" color="7" fill="1" visible="no" active="yes"/>
<layer number="248" name="Housing" color="7" fill="1" visible="no" active="yes"/>
<layer number="249" name="Edge" color="7" fill="1" visible="no" active="yes"/>
<layer number="250" name="Descript" color="3" fill="1" visible="no" active="no"/>
<layer number="251" name="SMDround" color="12" fill="11" visible="no" active="no"/>
<layer number="254" name="cooling" color="7" fill="1" visible="no" active="yes"/>
<layer number="255" name="routoute" color="7" fill="1" visible="no" active="yes"/>
</layers>
<schematic xreflabel="%F%N/%S.%C%R" xrefpart="/%S.%C%R">
<libraries>
<library name="SparkFun-PowerIC">
<description>&lt;h3&gt;SparkFun Electronics' preferred foot prints&lt;/h3&gt;
In this library you'll find drivers, regulators, and amplifiers.&lt;br&gt;&lt;br&gt;
We've spent an enormous amount of time creating and checking these footprints and parts, but it is the end user's responsibility to ensure correctness and suitablity for a given componet or application. If you enjoy using this library, please buy one of our products at www.sparkfun.com.
&lt;br&gt;&lt;br&gt;
&lt;b&gt;Licensing:&lt;/b&gt; Creative Commons ShareAlike 4.0 International - https://creativecommons.org/licenses/by-sa/4.0/ 
&lt;br&gt;&lt;br&gt;
You are welcome to use this library for commercial purposes. For attribution, we ask that when you begin to sell your device using our footprint, you email us with a link to the product being sold. We want bragging rights that we helped (in a very small part) to create your 8th world wonder. We would like the opportunity to feature your device on our homepage.</description>
<packages>
<package name="78XXL">
<description>&lt;b&gt;VOLTAGE REGULATOR&lt;/b&gt;</description>
<wire x1="-5.207" y1="-1.27" x2="5.207" y2="-1.27" width="0.1524" layer="21"/>
<wire x1="5.207" y1="14.605" x2="-5.207" y2="14.605" width="0.1524" layer="21"/>
<wire x1="5.207" y1="-1.27" x2="5.207" y2="11.176" width="0.1524" layer="21"/>
<wire x1="5.207" y1="11.176" x2="4.318" y2="11.176" width="0.1524" layer="21"/>
<wire x1="4.318" y1="11.176" x2="4.318" y2="12.7" width="0.1524" layer="21"/>
<wire x1="4.318" y1="12.7" x2="5.207" y2="12.7" width="0.1524" layer="21"/>
<wire x1="5.207" y1="12.7" x2="5.207" y2="14.605" width="0.1524" layer="21"/>
<wire x1="-5.207" y1="-1.27" x2="-5.207" y2="11.176" width="0.1524" layer="21"/>
<wire x1="-5.207" y1="11.176" x2="-4.318" y2="11.176" width="0.1524" layer="21"/>
<wire x1="-4.318" y1="11.176" x2="-4.318" y2="12.7" width="0.1524" layer="21"/>
<wire x1="-4.318" y1="12.7" x2="-5.207" y2="12.7" width="0.1524" layer="21"/>
<wire x1="-5.207" y1="12.7" x2="-5.207" y2="14.605" width="0.1524" layer="21"/>
<wire x1="-4.572" y1="-0.635" x2="4.572" y2="-0.635" width="0.0508" layer="21"/>
<wire x1="4.572" y1="7.62" x2="4.572" y2="-0.635" width="0.0508" layer="21"/>
<wire x1="4.572" y1="7.62" x2="-4.572" y2="7.62" width="0.0508" layer="21"/>
<wire x1="-4.572" y1="-0.635" x2="-4.572" y2="7.62" width="0.0508" layer="21"/>
<circle x="0" y="11.176" radius="1.8034" width="0.1524" layer="21"/>
<circle x="0" y="11.176" radius="4.191" width="0" layer="42"/>
<circle x="0" y="11.176" radius="4.191" width="0" layer="43"/>
<pad name="IN" x="-2.54" y="-3.81" drill="1.016" shape="long" rot="R90"/>
<pad name="GND" x="0" y="-3.81" drill="1.016" shape="long" rot="R90"/>
<pad name="OUT" x="2.54" y="-3.81" drill="1.016" shape="long" rot="R90"/>
<text x="-3.81" y="5.08" size="1.778" layer="25" ratio="10">&gt;NAME</text>
<text x="-3.937" y="2.54" size="1.778" layer="27" ratio="10">&gt;VALUE</text>
<text x="-4.445" y="7.874" size="0.9906" layer="21" ratio="10">A15,2mm</text>
<text x="-0.508" y="0" size="1.27" layer="51" ratio="10">-</text>
<text x="-3.048" y="0" size="1.27" layer="51" ratio="10">I</text>
<text x="2.032" y="0" size="1.27" layer="51" ratio="10">O</text>
<rectangle x1="1.905" y1="-2.159" x2="3.175" y2="-1.27" layer="21"/>
<rectangle x1="1.905" y1="-3.81" x2="3.175" y2="-2.159" layer="51"/>
<rectangle x1="-0.635" y1="-2.159" x2="0.635" y2="-1.27" layer="21"/>
<rectangle x1="-3.175" y1="-2.159" x2="-1.905" y2="-1.27" layer="21"/>
<rectangle x1="-0.635" y1="-3.81" x2="0.635" y2="-2.159" layer="51"/>
<rectangle x1="-3.175" y1="-3.81" x2="-1.905" y2="-2.159" layer="51"/>
<hole x="0" y="11.176" drill="3.302"/>
</package>
<package name="TO220-IGO">
<wire x1="5.08" y1="-1.905" x2="-5.08" y2="-1.905" width="0.2032" layer="21"/>
<wire x1="-5.08" y1="-1.905" x2="-5.08" y2="1.905" width="0.2032" layer="21"/>
<wire x1="-5.08" y1="1.905" x2="-5.08" y2="2.54" width="0.2032" layer="21"/>
<wire x1="-5.08" y1="2.54" x2="5.08" y2="2.54" width="0.2032" layer="21"/>
<wire x1="5.08" y1="2.54" x2="5.08" y2="1.905" width="0.2032" layer="21"/>
<wire x1="5.08" y1="1.905" x2="5.08" y2="-1.905" width="0.2032" layer="21"/>
<wire x1="5.08" y1="1.905" x2="-5.08" y2="1.905" width="0.2032" layer="21"/>
<wire x1="5.08" y1="2.54" x2="8.255" y2="2.54" width="0.2032" layer="51"/>
<wire x1="8.255" y1="2.54" x2="8.255" y2="-5.715" width="0.2032" layer="51"/>
<wire x1="8.255" y1="-5.715" x2="9.525" y2="-5.715" width="0.2032" layer="51"/>
<wire x1="9.525" y1="-5.715" x2="9.525" y2="3.81" width="0.2032" layer="51"/>
<wire x1="9.525" y1="3.81" x2="-9.525" y2="3.81" width="0.2032" layer="51"/>
<wire x1="-9.525" y1="3.81" x2="-9.525" y2="-5.715" width="0.2032" layer="51"/>
<wire x1="-9.525" y1="-5.715" x2="-8.255" y2="-5.715" width="0.2032" layer="51"/>
<wire x1="-8.255" y1="-5.715" x2="-8.255" y2="2.54" width="0.2032" layer="51"/>
<wire x1="-8.255" y1="2.54" x2="-5.08" y2="2.54" width="0.2032" layer="51"/>
<pad name="IN" x="-2.54" y="0" drill="1" diameter="1.8796" shape="square"/>
<pad name="GND" x="0" y="0" drill="1" diameter="1.8796"/>
<pad name="OUT" x="2.54" y="0" drill="1" diameter="1.8796"/>
</package>
<package name="TO-92">
<description>&lt;b&gt;TO 92&lt;/b&gt;</description>
<wire x1="-2.0946" y1="-1.651" x2="-0.7863" y2="2.5485" width="0.2032" layer="21" curve="-111.098957" cap="flat"/>
<wire x1="0.7863" y1="2.5484" x2="2.0945" y2="-1.651" width="0.2032" layer="21" curve="-111.09954" cap="flat"/>
<wire x1="-2.0945" y1="-1.651" x2="2.0945" y2="-1.651" width="0.2032" layer="21"/>
<wire x1="-2.6549" y1="-0.254" x2="-2.2537" y2="-0.254" width="0.2032" layer="21"/>
<wire x1="-0.2863" y1="-0.254" x2="0.2863" y2="-0.254" width="0.2032" layer="21"/>
<wire x1="2.2537" y1="-0.254" x2="2.6549" y2="-0.254" width="0.2032" layer="21"/>
<pad name="3" x="1.27" y="0" drill="0.8128" diameter="1.8796"/>
<pad name="2" x="0" y="1.905" drill="0.8128" diameter="1.8796"/>
<pad name="1" x="-1.27" y="0" drill="0.8128" diameter="1.8796"/>
<text x="3.175" y="0.635" size="0.4064" layer="25" ratio="10">&gt;NAME</text>
<text x="3.175" y="-1.27" size="0.4064" layer="27" ratio="10">&gt;VALUE</text>
</package>
<package name="TO-220-ALT">
<wire x1="-5.207" y1="-1.27" x2="5.207" y2="-1.27" width="0.1524" layer="21"/>
<wire x1="5.207" y1="14.605" x2="-5.207" y2="14.605" width="0.1524" layer="21"/>
<wire x1="5.207" y1="-1.27" x2="5.207" y2="11.176" width="0.1524" layer="21"/>
<wire x1="5.207" y1="11.176" x2="4.318" y2="11.176" width="0.1524" layer="21"/>
<wire x1="4.318" y1="11.176" x2="4.318" y2="12.7" width="0.1524" layer="21"/>
<wire x1="4.318" y1="12.7" x2="5.207" y2="12.7" width="0.1524" layer="21"/>
<wire x1="5.207" y1="12.7" x2="5.207" y2="14.605" width="0.1524" layer="21"/>
<wire x1="-5.207" y1="-1.27" x2="-5.207" y2="11.176" width="0.1524" layer="21"/>
<wire x1="-5.207" y1="11.176" x2="-4.318" y2="11.176" width="0.1524" layer="21"/>
<wire x1="-4.318" y1="11.176" x2="-4.318" y2="12.7" width="0.1524" layer="21"/>
<wire x1="-4.318" y1="12.7" x2="-5.207" y2="12.7" width="0.1524" layer="21"/>
<wire x1="-5.207" y1="12.7" x2="-5.207" y2="14.605" width="0.1524" layer="21"/>
<wire x1="-4.572" y1="-0.635" x2="4.572" y2="-0.635" width="0.0508" layer="21"/>
<wire x1="4.572" y1="7.62" x2="4.572" y2="-0.635" width="0.0508" layer="21"/>
<wire x1="4.572" y1="7.62" x2="-4.572" y2="7.62" width="0.0508" layer="21"/>
<wire x1="-4.572" y1="-0.635" x2="-4.572" y2="7.62" width="0.0508" layer="21"/>
<circle x="0" y="11.176" radius="1.8034" width="0.1524" layer="21"/>
<circle x="0" y="11.176" radius="3.048" width="0" layer="42"/>
<circle x="0" y="11.176" radius="3.048" width="0" layer="43"/>
<pad name="IN" x="-2.54" y="-3.81" drill="1.016" shape="long" rot="R90"/>
<pad name="GND" x="0" y="-3.81" drill="1.016" shape="long" rot="R90"/>
<pad name="OUT" x="2.54" y="-3.81" drill="1.016" shape="long" rot="R90"/>
<text x="-3.81" y="5.08" size="1.778" layer="25" ratio="10">&gt;NAME</text>
<text x="-3.937" y="2.54" size="1.778" layer="27" ratio="10">&gt;VALUE</text>
<text x="-0.508" y="0" size="1.27" layer="51" ratio="10">-</text>
<text x="-3.048" y="0" size="1.27" layer="51" ratio="10">I</text>
<text x="2.032" y="0" size="1.27" layer="51" ratio="10">O</text>
<rectangle x1="1.905" y1="-2.159" x2="3.175" y2="-1.27" layer="21"/>
<rectangle x1="1.905" y1="-3.81" x2="3.175" y2="-2.159" layer="51"/>
<rectangle x1="-0.635" y1="-2.159" x2="0.635" y2="-1.27" layer="21"/>
<rectangle x1="-3.175" y1="-2.159" x2="-1.905" y2="-1.27" layer="21"/>
<rectangle x1="-0.635" y1="-3.81" x2="0.635" y2="-2.159" layer="51"/>
<rectangle x1="-3.175" y1="-3.81" x2="-1.905" y2="-2.159" layer="51"/>
<hole x="0" y="11.176" drill="3.302"/>
</package>
<package name="TO-252">
<wire x1="3.2766" y1="3.8354" x2="3.277" y2="-2.159" width="0.2032" layer="21"/>
<wire x1="3.277" y1="-2.159" x2="-3.277" y2="-2.159" width="0.2032" layer="21"/>
<wire x1="-3.277" y1="-2.159" x2="-3.2766" y2="3.8354" width="0.2032" layer="21"/>
<wire x1="-3.277" y1="3.835" x2="3.2774" y2="3.8346" width="0.2032" layer="51"/>
<wire x1="-2.5654" y1="3.937" x2="-2.5654" y2="4.6482" width="0.2032" layer="51"/>
<wire x1="-2.5654" y1="4.6482" x2="-2.1082" y2="5.1054" width="0.2032" layer="51"/>
<wire x1="-2.1082" y1="5.1054" x2="2.1082" y2="5.1054" width="0.2032" layer="51"/>
<wire x1="2.1082" y1="5.1054" x2="2.5654" y2="4.6482" width="0.2032" layer="51"/>
<wire x1="2.5654" y1="4.6482" x2="2.5654" y2="3.937" width="0.2032" layer="51"/>
<wire x1="2.5654" y1="3.937" x2="-2.5654" y2="3.937" width="0.2032" layer="51"/>
<rectangle x1="-2.7178" y1="-5.1562" x2="-1.8542" y2="-2.2606" layer="51"/>
<rectangle x1="1.8542" y1="-5.1562" x2="2.7178" y2="-2.2606" layer="51"/>
<rectangle x1="-0.4318" y1="-3.0226" x2="0.4318" y2="-2.2606" layer="21"/>
<smd name="1" x="-2.28" y="-4.8" dx="1" dy="1.6" layer="1"/>
<smd name="2" x="2.28" y="-4.8" dx="1" dy="1.6" layer="1"/>
<smd name="3" x="0" y="2.5" dx="5.4" dy="6.2" layer="1"/>
<text x="-3.81" y="-2.54" size="1.27" layer="25" rot="R90">&gt;NAME</text>
<text x="5.08" y="-2.54" size="1.27" layer="27" rot="R90">&gt;VALUE</text>
<polygon width="0.1998" layer="51">
<vertex x="-2.5654" y="3.937"/>
<vertex x="-2.5654" y="4.6482"/>
<vertex x="-2.1082" y="5.1054"/>
<vertex x="2.1082" y="5.1054"/>
<vertex x="2.5654" y="4.6482"/>
<vertex x="2.5654" y="3.937"/>
</polygon>
</package>
</packages>
<symbols>
<symbol name="78XX">
<wire x1="-5.08" y1="-5.08" x2="5.08" y2="-5.08" width="0.4064" layer="94"/>
<wire x1="5.08" y1="-5.08" x2="5.08" y2="2.54" width="0.4064" layer="94"/>
<wire x1="5.08" y1="2.54" x2="-5.08" y2="2.54" width="0.4064" layer="94"/>
<wire x1="-5.08" y1="2.54" x2="-5.08" y2="-5.08" width="0.4064" layer="94"/>
<text x="2.54" y="-7.62" size="1.778" layer="95">&gt;NAME</text>
<text x="2.54" y="-10.16" size="1.778" layer="96">&gt;VALUE</text>
<text x="-2.032" y="-4.318" size="1.524" layer="95">GND</text>
<text x="-4.445" y="-0.635" size="1.524" layer="95">IN</text>
<text x="0.635" y="-0.635" size="1.524" layer="95">OUT</text>
<pin name="IN" x="-7.62" y="0" visible="off" length="short" direction="in"/>
<pin name="GND" x="0" y="-7.62" visible="off" length="short" direction="in" rot="R90"/>
<pin name="OUT" x="7.62" y="0" visible="off" length="short" direction="pas" rot="R180"/>
</symbol>
</symbols>
<devicesets>
<deviceset name="V_REG_78XX" prefix="U" uservalue="yes">
<description>&lt;b&gt;Voltage Regulator&lt;/b&gt;
Standard 78xx regulator. IGO (Input Ground Output). 

Spark Fun Electronics SKU : COM-00107</description>
<gates>
<gate name="G$1" symbol="78XX" x="0" y="0"/>
</gates>
<devices>
<device name="SIDE" package="78XXL">
<connects>
<connect gate="G$1" pin="GND" pad="GND"/>
<connect gate="G$1" pin="IN" pad="IN"/>
<connect gate="G$1" pin="OUT" pad="OUT"/>
</connects>
<technologies>
<technology name=""/>
</technologies>
</device>
<device name="SINK" package="TO220-IGO">
<connects>
<connect gate="G$1" pin="GND" pad="GND"/>
<connect gate="G$1" pin="IN" pad="IN"/>
<connect gate="G$1" pin="OUT" pad="OUT"/>
</connects>
<technologies>
<technology name=""/>
</technologies>
</device>
<device name="TO-92_UNTESTED" package="TO-92">
<connects>
<connect gate="G$1" pin="GND" pad="2"/>
<connect gate="G$1" pin="IN" pad="3"/>
<connect gate="G$1" pin="OUT" pad="1"/>
</connects>
<technologies>
<technology name=""/>
</technologies>
</device>
<device name="-TO-220" package="TO-220-ALT">
<connects>
<connect gate="G$1" pin="GND" pad="GND"/>
<connect gate="G$1" pin="IN" pad="IN"/>
<connect gate="G$1" pin="OUT" pad="OUT"/>
</connects>
<technologies>
<technology name="">
<attribute name="PROD_ID" value="VREG-08450" constant="no"/>
<attribute name="SF_ID" value="COM-00107" constant="no"/>
</technology>
</technologies>
</device>
<device name="7812" package="TO-252">
<connects>
<connect gate="G$1" pin="GND" pad="3"/>
<connect gate="G$1" pin="IN" pad="1"/>
<connect gate="G$1" pin="OUT" pad="2"/>
</connects>
<technologies>
<technology name="">
<attribute name="PROD_ID" value="VREG-12370" constant="no"/>
<attribute name="VALUE" value="+12v" constant="no"/>
</technology>
</technologies>
</device>
</devices>
</deviceset>
</devicesets>
</library>
<library name="SparkFun-Capacitors">
<description>&lt;h3&gt;SparkFun Electronics' preferred foot prints&lt;/h3&gt;
In this library you'll find resistors, capacitors, inductors, test points, jumper pads, etc.&lt;br&gt;&lt;br&gt;
We've spent an enormous amount of time creating and checking these footprints and parts, but it is the end user's responsibility to ensure correctness and suitablity for a given componet or application. If you enjoy using this library, please buy one of our products at www.sparkfun.com.
&lt;br&gt;&lt;br&gt;
&lt;b&gt;Licensing:&lt;/b&gt; Creative Commons ShareAlike 4.0 International - https://creativecommons.org/licenses/by-sa/4.0/ 
&lt;br&gt;&lt;br&gt;
You are welcome to use this library for commercial purposes. For attribution, we ask that when you begin to sell your device using our footprint, you email us with a link to the product being sold. We want bragging rights that we helped (in a very small part) to create your 8th world wonder. We would like the opportunity to feature your device on our homepage.</description>
<packages>
<package name="CAP-PTH-SMALL">
<wire x1="1.27" y1="0.635" x2="1.27" y2="-0.635" width="0.2032" layer="21"/>
<pad name="1" x="0" y="0" drill="0.7" diameter="1.651"/>
<pad name="2" x="2.54" y="0" drill="0.7" diameter="1.651"/>
<text x="0.508" y="1.27" size="0.4064" layer="25">&gt;Name</text>
<text x="0.254" y="-1.524" size="0.4064" layer="27">&gt;Value</text>
</package>
<package name="CAP-PTH-SMALL2">
<wire x1="1.27" y1="0.635" x2="1.27" y2="-0.635" width="0.2032" layer="21"/>
<wire x1="-1.27" y1="1.27" x2="3.81" y2="1.27" width="0.2032" layer="21"/>
<wire x1="3.81" y1="1.27" x2="3.81" y2="-1.27" width="0.2032" layer="21"/>
<wire x1="3.81" y1="-1.27" x2="-1.27" y2="-1.27" width="0.2032" layer="21"/>
<wire x1="-1.27" y1="-1.27" x2="-1.27" y2="1.27" width="0.2032" layer="21"/>
<pad name="1" x="0" y="0" drill="0.7" diameter="1.651"/>
<pad name="2" x="2.54" y="0" drill="0.7" diameter="1.651"/>
<text x="-1.27" y="1.905" size="0.6096" layer="25">&gt;Name</text>
<text x="-1.27" y="-2.54" size="0.6096" layer="27">&gt;Value</text>
</package>
<package name="0805">
<wire x1="-0.3" y1="0.6" x2="0.3" y2="0.6" width="0.1524" layer="21"/>
<wire x1="-0.3" y1="-0.6" x2="0.3" y2="-0.6" width="0.1524" layer="21"/>
<smd name="1" x="-0.9" y="0" dx="0.8" dy="1.2" layer="1"/>
<smd name="2" x="0.9" y="0" dx="0.8" dy="1.2" layer="1"/>
<text x="-0.762" y="0.8255" size="0.4064" layer="25">&gt;NAME</text>
<text x="-1.016" y="-1.397" size="0.4064" layer="27">&gt;VALUE</text>
</package>
<package name="CAP-PTH-LARGE">
<wire x1="0" y1="0.635" x2="0" y2="0" width="0.2032" layer="21"/>
<wire x1="0" y1="0" x2="0" y2="-0.635" width="0.2032" layer="21"/>
<wire x1="0" y1="0" x2="-2.54" y2="0" width="0.2032" layer="21"/>
<wire x1="0" y1="0" x2="2.54" y2="0" width="0.2032" layer="21"/>
<pad name="1" x="-4.826" y="0" drill="0.9" diameter="1.905"/>
<pad name="2" x="4.572" y="0" drill="0.9" diameter="1.905"/>
<text x="-0.762" y="1.27" size="0.4064" layer="25">&gt;Name</text>
<text x="-1.016" y="-1.524" size="0.4064" layer="27">&gt;Value</text>
</package>
<package name="GRM43D">
<wire x1="2.25" y1="1.6" x2="1.1" y2="1.6" width="0.127" layer="51"/>
<wire x1="1.1" y1="1.6" x2="-1.1" y2="1.6" width="0.127" layer="51"/>
<wire x1="-1.1" y1="1.6" x2="-2.25" y2="1.6" width="0.127" layer="51"/>
<wire x1="-2.25" y1="1.6" x2="-2.25" y2="-1.6" width="0.127" layer="51"/>
<wire x1="-2.25" y1="-1.6" x2="-1.1" y2="-1.6" width="0.127" layer="51"/>
<wire x1="-1.1" y1="-1.6" x2="1.1" y2="-1.6" width="0.127" layer="51"/>
<wire x1="1.1" y1="-1.6" x2="2.25" y2="-1.6" width="0.127" layer="51"/>
<wire x1="2.25" y1="-1.6" x2="2.25" y2="1.6" width="0.127" layer="51"/>
<wire x1="1.1" y1="1.6" x2="1.1" y2="-1.6" width="0.127" layer="51"/>
<wire x1="-1.1" y1="1.6" x2="-1.1" y2="-1.6" width="0.127" layer="51"/>
<wire x1="-2.3" y1="1.8" x2="2.3" y2="1.8" width="0.127" layer="21"/>
<wire x1="-2.3" y1="-1.8" x2="2.3" y2="-1.8" width="0.127" layer="21"/>
<smd name="A" x="1.927" y="0" dx="3.2" dy="1.65" layer="1" rot="R90"/>
<smd name="C" x="-1.927" y="0" dx="3.2" dy="1.65" layer="1" rot="R90"/>
<text x="-2" y="2" size="0.4064" layer="25">&gt;NAME</text>
<text x="0" y="-2" size="0.4064" layer="27" rot="R180">&gt;VALUE</text>
<rectangle x1="-2.2" y1="-1.6" x2="-1.1" y2="1.6" layer="51"/>
<rectangle x1="1.1" y1="-1.6" x2="2.2" y2="1.6" layer="51"/>
</package>
<package name="0603-CAP">
<wire x1="-1.473" y1="0.983" x2="1.473" y2="0.983" width="0.0508" layer="39"/>
<wire x1="1.473" y1="0.983" x2="1.473" y2="-0.983" width="0.0508" layer="39"/>
<wire x1="1.473" y1="-0.983" x2="-1.473" y2="-0.983" width="0.0508" layer="39"/>
<wire x1="-1.473" y1="-0.983" x2="-1.473" y2="0.983" width="0.0508" layer="39"/>
<wire x1="-0.356" y1="0.432" x2="0.356" y2="0.432" width="0.1016" layer="51"/>
<wire x1="-0.356" y1="-0.419" x2="0.356" y2="-0.419" width="0.1016" layer="51"/>
<wire x1="0" y1="0.0305" x2="0" y2="-0.0305" width="0.5588" layer="21"/>
<smd name="1" x="-0.85" y="0" dx="1.1" dy="1" layer="1"/>
<smd name="2" x="0.85" y="0" dx="1.1" dy="1" layer="1"/>
<text x="-0.889" y="0.762" size="0.4064" layer="25" font="vector">&gt;NAME</text>
<text x="-1.016" y="-1.143" size="0.4064" layer="27" font="vector">&gt;VALUE</text>
<rectangle x1="-0.8382" y1="-0.4699" x2="-0.3381" y2="0.4801" layer="51"/>
<rectangle x1="0.3302" y1="-0.4699" x2="0.8303" y2="0.4801" layer="51"/>
<rectangle x1="-0.1999" y1="-0.3" x2="0.1999" y2="0.3" layer="35"/>
</package>
<package name="0402-CAP">
<description>&lt;b&gt;CAPACITOR&lt;/b&gt;&lt;p&gt;
chip</description>
<wire x1="-0.245" y1="0.224" x2="0.245" y2="0.224" width="0.1524" layer="51"/>
<wire x1="0.245" y1="-0.224" x2="-0.245" y2="-0.224" width="0.1524" layer="51"/>
<wire x1="-1.473" y1="0.483" x2="1.473" y2="0.483" width="0.0508" layer="39"/>
<wire x1="1.473" y1="0.483" x2="1.473" y2="-0.483" width="0.0508" layer="39"/>
<wire x1="1.473" y1="-0.483" x2="-1.473" y2="-0.483" width="0.0508" layer="39"/>
<wire x1="-1.473" y1="-0.483" x2="-1.473" y2="0.483" width="0.0508" layer="39"/>
<wire x1="0" y1="0.0305" x2="0" y2="-0.0305" width="0.4064" layer="21"/>
<smd name="1" x="-0.58" y="0" dx="0.85" dy="0.9" layer="1"/>
<smd name="2" x="0.58" y="0" dx="0.85" dy="0.9" layer="1"/>
<text x="-0.889" y="0.6985" size="0.4064" layer="25">&gt;NAME</text>
<text x="-1.0795" y="-1.143" size="0.4064" layer="27">&gt;VALUE</text>
<rectangle x1="-0.554" y1="-0.3048" x2="-0.254" y2="0.2951" layer="51"/>
<rectangle x1="0.2588" y1="-0.3048" x2="0.5588" y2="0.2951" layer="51"/>
<rectangle x1="-0.1999" y1="-0.3" x2="0.1999" y2="0.3" layer="35"/>
</package>
<package name="CAP-PTH-5MM">
<wire x1="0" y1="0.635" x2="0" y2="-0.635" width="0.2032" layer="21"/>
<pad name="1" x="-2.5" y="0" drill="0.7" diameter="1.651"/>
<pad name="2" x="2.5" y="0" drill="0.7" diameter="1.651"/>
<text x="-0.762" y="1.27" size="0.4064" layer="25">&gt;Name</text>
<text x="-1.016" y="-1.524" size="0.4064" layer="27">&gt;Value</text>
</package>
<package name="AXIAL-5MM">
<wire x1="-1.14" y1="0.762" x2="1.14" y2="0.762" width="0.2032" layer="21"/>
<wire x1="1.14" y1="0.762" x2="1.14" y2="0" width="0.2032" layer="21"/>
<wire x1="1.14" y1="0" x2="1.14" y2="-0.762" width="0.2032" layer="21"/>
<wire x1="1.14" y1="-0.762" x2="-1.14" y2="-0.762" width="0.2032" layer="21"/>
<wire x1="-1.14" y1="-0.762" x2="-1.14" y2="0" width="0.2032" layer="21"/>
<wire x1="-1.14" y1="0" x2="-1.14" y2="0.762" width="0.2032" layer="21"/>
<wire x1="1.14" y1="0" x2="1.394" y2="0" width="0.2032" layer="21"/>
<wire x1="-1.14" y1="0" x2="-1.394" y2="0" width="0.2032" layer="21"/>
<pad name="P$1" x="-2.5" y="0" drill="0.9" diameter="1.8796"/>
<pad name="P$2" x="2.5" y="0" drill="0.9" diameter="1.8796"/>
<text x="-2.54" y="1.17" size="0.4" layer="25">&gt;Name</text>
<text x="-1.032" y="-0.208" size="0.4" layer="21" ratio="15">&gt;Value</text>
</package>
<package name="1210">
<wire x1="-1.6" y1="1.3" x2="1.6" y2="1.3" width="0.127" layer="51"/>
<wire x1="1.6" y1="1.3" x2="1.6" y2="-1.3" width="0.127" layer="51"/>
<wire x1="1.6" y1="-1.3" x2="-1.6" y2="-1.3" width="0.127" layer="51"/>
<wire x1="-1.6" y1="-1.3" x2="-1.6" y2="1.3" width="0.127" layer="51"/>
<wire x1="-1.6" y1="1.3" x2="1.6" y2="1.3" width="0.2032" layer="21"/>
<wire x1="-1.6" y1="-1.3" x2="1.6" y2="-1.3" width="0.2032" layer="21"/>
<smd name="1" x="-1.6" y="0" dx="1.2" dy="2" layer="1"/>
<smd name="2" x="1.6" y="0" dx="1.2" dy="2" layer="1"/>
<text x="-0.8" y="0.5" size="0.4064" layer="25">&gt;NAME</text>
<text x="-0.9" y="-0.7" size="0.4064" layer="27">&gt;VALUE</text>
</package>
<package name="1206">
<wire x1="-2.473" y1="0.983" x2="2.473" y2="0.983" width="0.0508" layer="39"/>
<wire x1="2.473" y1="-0.983" x2="-2.473" y2="-0.983" width="0.0508" layer="39"/>
<wire x1="-2.473" y1="-0.983" x2="-2.473" y2="0.983" width="0.0508" layer="39"/>
<wire x1="2.473" y1="0.983" x2="2.473" y2="-0.983" width="0.0508" layer="39"/>
<wire x1="-0.965" y1="0.787" x2="0.965" y2="0.787" width="0.1016" layer="51"/>
<wire x1="-0.965" y1="-0.787" x2="0.965" y2="-0.787" width="0.1016" layer="51"/>
<smd name="1" x="-1.4" y="0" dx="1.6" dy="1.8" layer="1"/>
<smd name="2" x="1.4" y="0" dx="1.6" dy="1.8" layer="1"/>
<text x="-1.27" y="1.143" size="0.4064" layer="25">&gt;NAME</text>
<text x="-1.397" y="-1.524" size="0.4064" layer="27">&gt;VALUE</text>
<rectangle x1="-1.7018" y1="-0.8509" x2="-0.9517" y2="0.8491" layer="51"/>
<rectangle x1="0.9517" y1="-0.8491" x2="1.7018" y2="0.8509" layer="51"/>
<rectangle x1="-0.1999" y1="-0.4001" x2="0.1999" y2="0.4001" layer="35"/>
</package>
<package name="CTZ3">
<description>CTZ3 Series land pattern for variable capacitor - CTZ3E-50C-W1-PF</description>
<wire x1="-1.6" y1="1.4" x2="-1.6" y2="-2.25" width="0.127" layer="51"/>
<wire x1="-1.6" y1="-2.25" x2="1.6" y2="-2.25" width="0.127" layer="51"/>
<wire x1="1.6" y1="1.4" x2="1.6" y2="-2.25" width="0.127" layer="51"/>
<wire x1="-0.5" y1="0" x2="0.5" y2="0" width="0.127" layer="51"/>
<wire x1="-1.6" y1="1.4" x2="-1" y2="2.2" width="0.127" layer="51"/>
<wire x1="1.6" y1="1.4" x2="1" y2="2.2" width="0.127" layer="51"/>
<wire x1="-1" y1="2.2" x2="1" y2="2.2" width="0.127" layer="51"/>
<wire x1="0" y1="0.8" x2="0" y2="-0.8" width="0.127" layer="51"/>
<wire x1="-0.8" y1="0" x2="0.8" y2="0" width="0.127" layer="51"/>
<wire x1="-1.05" y1="2.25" x2="-1.7" y2="1.45" width="0.127" layer="21"/>
<wire x1="-1.7" y1="1.45" x2="-1.7" y2="-2.35" width="0.127" layer="21"/>
<wire x1="-1.7" y1="-2.35" x2="-1.05" y2="-2.35" width="0.127" layer="21"/>
<wire x1="1.05" y1="2.25" x2="1.7" y2="1.4" width="0.127" layer="21"/>
<wire x1="1.7" y1="1.4" x2="1.7" y2="-2.35" width="0.127" layer="21"/>
<wire x1="1.7" y1="-2.35" x2="1.05" y2="-2.35" width="0.127" layer="21"/>
<smd name="+" x="0" y="2.05" dx="1.5" dy="1.2" layer="1"/>
<smd name="-" x="0" y="-2.05" dx="1.5" dy="1.2" layer="1"/>
<text x="-2" y="3" size="0.4064" layer="25">&gt;NAME</text>
<text x="-2" y="-3.4" size="0.4064" layer="27">&gt;VALUE</text>
</package>
<package name="CAP-PTH-SMALL-KIT">
<description>&lt;h3&gt;CAP-PTH-SMALL-KIT&lt;/h3&gt;
Commonly used for small ceramic capacitors. Like our 0.1uF (http://www.sparkfun.com/products/8375) or 22pF caps (http://www.sparkfun.com/products/8571).&lt;br&gt;
&lt;br&gt;
&lt;b&gt;Warning:&lt;/b&gt; This is the KIT version of this package. This package has a smaller diameter top stop mask, which doesn't cover the diameter of the pad. This means only the bottom side of the pads' copper will be exposed. You'll only be able to solder to the bottom side.</description>
<wire x1="0" y1="0.635" x2="0" y2="-0.635" width="0.254" layer="21"/>
<wire x1="-2.667" y1="1.27" x2="2.667" y2="1.27" width="0.254" layer="21"/>
<wire x1="2.667" y1="1.27" x2="2.667" y2="-1.27" width="0.254" layer="21"/>
<wire x1="2.667" y1="-1.27" x2="-2.667" y2="-1.27" width="0.254" layer="21"/>
<wire x1="-2.667" y1="-1.27" x2="-2.667" y2="1.27" width="0.254" layer="21"/>
<pad name="1" x="-1.397" y="0" drill="1.016" diameter="2.032" stop="no"/>
<pad name="2" x="1.397" y="0" drill="1.016" diameter="2.032" stop="no"/>
<polygon width="0.127" layer="30">
<vertex x="-1.4021" y="-0.9475" curve="-90"/>
<vertex x="-2.357" y="-0.0178" curve="-90.011749"/>
<vertex x="-1.4046" y="0.9576" curve="-90"/>
<vertex x="-0.4546" y="-0.0204" curve="-90.024193"/>
</polygon>
<polygon width="0.127" layer="29">
<vertex x="-1.4046" y="-0.4395" curve="-90.012891"/>
<vertex x="-1.8491" y="-0.0153" curve="-90"/>
<vertex x="-1.4046" y="0.452" curve="-90"/>
<vertex x="-0.9627" y="-0.0051" curve="-90.012967"/>
</polygon>
<polygon width="0.127" layer="30">
<vertex x="1.397" y="-0.9475" curve="-90"/>
<vertex x="0.4421" y="-0.0178" curve="-90.011749"/>
<vertex x="1.3945" y="0.9576" curve="-90"/>
<vertex x="2.3445" y="-0.0204" curve="-90.024193"/>
</polygon>
<polygon width="0.127" layer="29">
<vertex x="1.3945" y="-0.4395" curve="-90.012891"/>
<vertex x="0.95" y="-0.0153" curve="-90"/>
<vertex x="1.3945" y="0.452" curve="-90"/>
<vertex x="1.8364" y="-0.0051" curve="-90.012967"/>
</polygon>
</package>
<package name="CAP-PTH-SMALLEZ">
<description>This is the "EZ" version of the .1" spaced ceramic thru-hole cap.&lt;br&gt;
It has reduced top mask to make it harder to put the component on the wrong side of the board.</description>
<wire x1="1.27" y1="0.635" x2="1.27" y2="-0.635" width="0.2032" layer="21"/>
<wire x1="-1.27" y1="1.27" x2="3.81" y2="1.27" width="0.2032" layer="21"/>
<wire x1="3.81" y1="1.27" x2="3.81" y2="-1.27" width="0.2032" layer="21"/>
<wire x1="3.81" y1="-1.27" x2="-1.27" y2="-1.27" width="0.2032" layer="21"/>
<wire x1="-1.27" y1="-1.27" x2="-1.27" y2="1.27" width="0.2032" layer="21"/>
<pad name="1" x="0" y="0" drill="0.7" diameter="1.651" stop="no"/>
<pad name="2" x="2.54" y="0" drill="0.7" diameter="1.651" stop="no"/>
<text x="-1.27" y="1.905" size="0.6096" layer="25">&gt;Name</text>
<text x="-1.27" y="-2.54" size="0.6096" layer="27">&gt;Value</text>
<circle x="0" y="0" radius="0.898025" width="0" layer="30"/>
<circle x="2.54" y="0" radius="0.915809375" width="0" layer="30"/>
<circle x="0" y="0" radius="0.40160625" width="0" layer="29"/>
<circle x="2.54" y="0" radius="0.40160625" width="0" layer="29"/>
</package>
</packages>
<symbols>
<symbol name="CAP">
<wire x1="0" y1="2.54" x2="0" y2="2.032" width="0.1524" layer="94"/>
<wire x1="0" y1="0" x2="0" y2="0.508" width="0.1524" layer="94"/>
<text x="1.524" y="2.921" size="1.778" layer="95">&gt;NAME</text>
<text x="1.524" y="-2.159" size="1.778" layer="96">&gt;VALUE</text>
<rectangle x1="-2.032" y1="0.508" x2="2.032" y2="1.016" layer="94"/>
<rectangle x1="-2.032" y1="1.524" x2="2.032" y2="2.032" layer="94"/>
<pin name="1" x="0" y="5.08" visible="off" length="short" direction="pas" swaplevel="1" rot="R270"/>
<pin name="2" x="0" y="-2.54" visible="off" length="short" direction="pas" swaplevel="1" rot="R90"/>
</symbol>
</symbols>
<devicesets>
<deviceset name="CAP" prefix="C" uservalue="yes">
<description>&lt;b&gt;Capacitor&lt;/b&gt;
Standard 0603 ceramic capacitor, and 0.1" leaded capacitor.</description>
<gates>
<gate name="G$1" symbol="CAP" x="0" y="0"/>
</gates>
<devices>
<device name="PTH" package="CAP-PTH-SMALL">
<connects>
<connect gate="G$1" pin="1" pad="1"/>
<connect gate="G$1" pin="2" pad="2"/>
</connects>
<technologies>
<technology name=""/>
</technologies>
</device>
<device name="PTH2" package="CAP-PTH-SMALL2">
<connects>
<connect gate="G$1" pin="1" pad="1"/>
<connect gate="G$1" pin="2" pad="2"/>
</connects>
<technologies>
<technology name=""/>
</technologies>
</device>
<device name="0805" package="0805">
<connects>
<connect gate="G$1" pin="1" pad="1"/>
<connect gate="G$1" pin="2" pad="2"/>
</connects>
<technologies>
<technology name=""/>
</technologies>
</device>
<device name="PTH3" package="CAP-PTH-LARGE">
<connects>
<connect gate="G$1" pin="1" pad="1"/>
<connect gate="G$1" pin="2" pad="2"/>
</connects>
<technologies>
<technology name=""/>
</technologies>
</device>
<device name="SMD" package="GRM43D">
<connects>
<connect gate="G$1" pin="1" pad="A"/>
<connect gate="G$1" pin="2" pad="C"/>
</connects>
<technologies>
<technology name=""/>
</technologies>
</device>
<device name="0603-CAP" package="0603-CAP">
<connects>
<connect gate="G$1" pin="1" pad="1"/>
<connect gate="G$1" pin="2" pad="2"/>
</connects>
<technologies>
<technology name=""/>
</technologies>
</device>
<device name="0402-CAP" package="0402-CAP">
<connects>
<connect gate="G$1" pin="1" pad="1"/>
<connect gate="G$1" pin="2" pad="2"/>
</connects>
<technologies>
<technology name=""/>
</technologies>
</device>
<device name="PTH1" package="CAP-PTH-5MM">
<connects>
<connect gate="G$1" pin="1" pad="1"/>
<connect gate="G$1" pin="2" pad="2"/>
</connects>
<technologies>
<technology name=""/>
</technologies>
</device>
<device name="_" package="AXIAL-5MM">
<connects>
<connect gate="G$1" pin="1" pad="P$1"/>
<connect gate="G$1" pin="2" pad="P$2"/>
</connects>
<technologies>
<technology name=""/>
</technologies>
</device>
<device name="1210" package="1210">
<connects>
<connect gate="G$1" pin="1" pad="1"/>
<connect gate="G$1" pin="2" pad="2"/>
</connects>
<technologies>
<technology name=""/>
</technologies>
</device>
<device name="1206" package="1206">
<connects>
<connect gate="G$1" pin="1" pad="1"/>
<connect gate="G$1" pin="2" pad="2"/>
</connects>
<technologies>
<technology name=""/>
</technologies>
</device>
<device name="ASMD" package="CTZ3">
<connects>
<connect gate="G$1" pin="1" pad="+"/>
<connect gate="G$1" pin="2" pad="-"/>
</connects>
<technologies>
<technology name=""/>
</technologies>
</device>
<device name="KIT" package="CAP-PTH-SMALL-KIT">
<connects>
<connect gate="G$1" pin="1" pad="1"/>
<connect gate="G$1" pin="2" pad="2"/>
</connects>
<technologies>
<technology name=""/>
</technologies>
</device>
<device name="EZ" package="CAP-PTH-SMALLEZ">
<connects>
<connect gate="G$1" pin="1" pad="1"/>
<connect gate="G$1" pin="2" pad="2"/>
</connects>
<technologies>
<technology name=""/>
</technologies>
</device>
</devices>
</deviceset>
</devicesets>
</library>
<library name="SparkFun-Aesthetics">
<description>&lt;h3&gt;SparkFun Electronics' preferred foot prints&lt;/h3&gt;
In this library you'll find non-functional items- supply symbols, logos, notations, frame blocks, etc.&lt;br&gt;&lt;br&gt;
We've spent an enormous amount of time creating and checking these footprints and parts, but it is the end user's responsibility to ensure correctness and suitablity for a given componet or application. If you enjoy using this library, please buy one of our products at www.sparkfun.com.
&lt;br&gt;&lt;br&gt;
&lt;b&gt;Licensing:&lt;/b&gt; Creative Commons ShareAlike 4.0 International - https://creativecommons.org/licenses/by-sa/4.0/ 
&lt;br&gt;&lt;br&gt;
You are welcome to use this library for commercial purposes. For attribution, we ask that when you begin to sell your device using our footprint, you email us with a link to the product being sold. We want bragging rights that we helped (in a very small part) to create your 8th world wonder. We would like the opportunity to feature your device on our homepage.</description>
<packages>
</packages>
<symbols>
<symbol name="DGND">
<wire x1="-1.905" y1="0" x2="1.905" y2="0" width="0.254" layer="94"/>
<text x="-2.54" y="-2.54" size="1.778" layer="96">&gt;VALUE</text>
<pin name="GND" x="0" y="2.54" visible="off" length="short" direction="sup" rot="R270"/>
</symbol>
</symbols>
<devicesets>
<deviceset name="GND" prefix="GND">
<description>&lt;b&gt;SUPPLY SYMBOL&lt;/b&gt;</description>
<gates>
<gate name="1" symbol="DGND" x="0" y="0"/>
</gates>
<devices>
<device name="">
<technologies>
<technology name=""/>
</technologies>
</device>
</devices>
</deviceset>
</devicesets>
</library>
</libraries>
<attributes>
</attributes>
<variantdefs>
</variantdefs>
<classes>
<class number="0" name="default" width="0" drill="0">
</class>
</classes>
<parts>
<part name="78XX" library="SparkFun-PowerIC" deviceset="V_REG_78XX" device="SIDE"/>
<part name="C1" library="SparkFun-Capacitors" deviceset="CAP" device="KIT" value="10uF"/>
<part name="C2" library="SparkFun-Capacitors" deviceset="CAP" device="KIT" value="100uF"/>
<part name="GND1" library="SparkFun-Aesthetics" deviceset="GND" device=""/>
</parts>
<sheets>
<sheet>
<plain>
<text x="99.06" y="53.34" size="1.778" layer="91">Output Voltage (5V)</text>
<text x="25.4" y="53.34" size="1.778" layer="91">Input Voltage (7-20V)</text>
</plain>
<instances>
<instance part="78XX" gate="G$1" x="71.12" y="60.96"/>
<instance part="C1" gate="G$1" x="88.9" y="53.34"/>
<instance part="C2" gate="G$1" x="53.34" y="53.34"/>
<instance part="GND1" gate="1" x="71.12" y="43.18"/>
</instances>
<busses>
</busses>
<nets>
<net name="N$1" class="0">
<segment>
<pinref part="78XX" gate="G$1" pin="IN"/>
<pinref part="C2" gate="G$1" pin="1"/>
<wire x1="63.5" y1="60.96" x2="53.34" y2="60.96" width="0.1524" layer="91"/>
<wire x1="53.34" y1="60.96" x2="53.34" y2="58.42" width="0.1524" layer="91"/>
<junction x="53.34" y="60.96"/>
<wire x1="53.34" y1="60.96" x2="43.18" y2="60.96" width="0.1524" layer="91"/>
<junction x="43.18" y="60.96"/>
</segment>
</net>
<net name="N$2" class="0">
<segment>
<pinref part="C1" gate="G$1" pin="1"/>
<wire x1="88.9" y1="58.42" x2="88.9" y2="60.96" width="0.1524" layer="91"/>
<pinref part="78XX" gate="G$1" pin="OUT"/>
<wire x1="88.9" y1="60.96" x2="78.74" y2="60.96" width="0.1524" layer="91"/>
<junction x="88.9" y="60.96"/>
<wire x1="88.9" y1="60.96" x2="99.06" y2="60.96" width="0.1524" layer="91"/>
<junction x="99.06" y="60.96"/>
</segment>
</net>
<net name="GND" class="0">
<segment>
<pinref part="GND1" gate="1" pin="GND"/>
<pinref part="78XX" gate="G$1" pin="GND"/>
<wire x1="71.12" y1="53.34" x2="71.12" y2="48.26" width="0.1524" layer="91"/>
<wire x1="71.12" y1="48.26" x2="71.12" y2="45.72" width="0.1524" layer="91"/>
<wire x1="43.18" y1="48.26" x2="53.34" y2="48.26" width="0.1524" layer="91"/>
<pinref part="C2" gate="G$1" pin="2"/>
<wire x1="88.9" y1="48.26" x2="99.06" y2="48.26" width="0.1524" layer="91"/>
<wire x1="53.34" y1="50.8" x2="53.34" y2="48.26" width="0.1524" layer="91"/>
<pinref part="C1" gate="G$1" pin="2"/>
<wire x1="53.34" y1="48.26" x2="71.12" y2="48.26" width="0.1524" layer="91"/>
<wire x1="71.12" y1="48.26" x2="88.9" y2="48.26" width="0.1524" layer="91"/>
<wire x1="88.9" y1="48.26" x2="88.9" y2="50.8" width="0.1524" layer="91"/>
<junction x="53.34" y="48.26"/>
<junction x="88.9" y="48.26"/>
<junction x="71.12" y="48.26"/>
<junction x="43.18" y="48.26"/>
<junction x="99.06" y="48.26"/>
</segment>
</net>
</nets>
</sheet>
</sheets>
</schematic>
</drawing>
</eagle>
